<!-- Generated by IcoMoon.io -->
<svg version="1.1" xmlns="http://www.w3.org/2000/svg" width="16" height="16" viewBox="0 0 16 16">
<title>2</title>
<path fill="#444" d="M13.865 0.001h-11.731c-1.175 0-2.135 0.96-2.135 2.135v11.728c0 1.175 0.96 2.135 2.135 2.135h11.731c1.175 0 2.135-0.96 2.135-2.135v-11.728c-0.002-1.175-0.96-2.135-2.135-2.135zM14.928 13.864c0 0.587-0.485 1.062-1.062 1.062l-11.731 0.008c-0.587 0-1.062-0.485-1.062-1.062v-11.736c0-0.587 0.485-1.062 1.062-1.062h11.731c0.587 0 1.062 0.485 1.062 1.062v11.728z"></path>
<path fill="#444" d="M9.441 9.627c-0.082-0.065-0.205-0.097-0.362-0.097h-1.592c0.050-0.077 0.1-0.142 0.15-0.197 0.115-0.137 0.325-0.332 0.63-0.582s0.525-0.435 0.655-0.55c0.13-0.117 0.257-0.277 0.382-0.485s0.187-0.435 0.187-0.687c0-0.16-0.030-0.315-0.090-0.465s-0.145-0.28-0.252-0.395c-0.107-0.115-0.232-0.202-0.375-0.267-0.22-0.097-0.485-0.147-0.797-0.147-0.257 0-0.482 0.037-0.675 0.115s-0.35 0.177-0.475 0.3c-0.125 0.125-0.22 0.262-0.282 0.415s-0.095 0.3-0.095 0.44c0 0.115 0.032 0.207 0.1 0.275s0.152 0.1 0.252 0.1c0.115 0 0.205-0.037 0.265-0.11s0.115-0.177 0.162-0.315c0.048-0.137 0.082-0.22 0.102-0.25 0.152-0.235 0.362-0.35 0.627-0.35 0.125 0 0.242 0.027 0.35 0.085s0.192 0.137 0.252 0.24c0.062 0.102 0.092 0.22 0.092 0.35 0 0.12-0.030 0.242-0.087 0.367s-0.142 0.247-0.252 0.365c-0.11 0.12-0.25 0.237-0.417 0.355-0.092 0.062-0.25 0.195-0.467 0.395s-0.462 0.44-0.732 0.722c-0.065 0.070-0.125 0.165-0.18 0.285s-0.082 0.217-0.082 0.292c0 0.115 0.043 0.212 0.127 0.297s0.205 0.127 0.357 0.127h2.245c0.135 0 0.235-0.035 0.3-0.105s0.1-0.152 0.1-0.252c0.002-0.115-0.040-0.205-0.122-0.27z"></path>
</svg>
