<!-- Generated by IcoMoon.io -->
<svg version="1.1" xmlns="http://www.w3.org/2000/svg" width="16" height="16" viewBox="0 0 16 16">
<title>checkbox_off</title>
<path fill="#444" d="M12.239 16h-8.427c-2.133 0-3.787-1.76-3.787-3.787v-8.427c0-2.133 1.76-3.787 3.787-3.787h8.373c2.133 0 3.787 1.76 3.787 3.787v8.373c0.053 2.080-1.6 3.84-3.733 3.84zM3.813 1.28c-1.333 0-2.4 1.12-2.4 2.4v8.373c0 1.333 1.12 2.4 2.4 2.4h8.373c1.333 0 2.4-1.12 2.4-2.4v-8.373c0-1.333-1.12-2.4-2.4-2.4h-8.373z"></path>
</svg>
