<!-- Generated by IcoMoon.io -->
<svg version="1.1" xmlns="http://www.w3.org/2000/svg" width="16" height="16" viewBox="0 0 16 16">
<title>close-fill</title>
<path fill="#444" d="M7.997 0.497c-4.144 0-7.5 3.356-7.5 7.5s3.356 7.5 7.5 7.5 7.5-3.356 7.5-7.5-3.35-7.5-7.5-7.5zM11.75 10.691l-1.059 1.059-2.694-2.694-2.694 2.694-1.059-1.059 2.694-2.694-2.694-2.694 1.059-1.059 2.694 2.694 2.694-2.694 1.059 1.059-2.694 2.694 2.694 2.694z"></path>
</svg>
