<!-- Generated by IcoMoon.io -->
<svg version="1.1" xmlns="http://www.w3.org/2000/svg" width="16" height="16" viewBox="0 0 16 16">
<title>comment1</title>
<path fill="#444" d="M14.4 0h-12.8c-0.88 0-1.6 0.72-1.6 1.6v14.4l3.2-3.2h11.2c0.88 0 1.6-0.72 1.6-1.6v-9.6c0-0.88-0.72-1.6-1.6-1.6z"></path>
</svg>
