<!-- Generated by IcoMoon.io -->
<svg version="1.1" xmlns="http://www.w3.org/2000/svg" width="16" height="16" viewBox="0 0 16 16">
<title>data_transfer</title>
<path fill="#444" d="M7.893 7.147c-0.053-0.053-0.107-0.053-0.16-0.053-0.107 0-0.213 0.107-0.213 0.213 0 0.053 0 0.107 0.053 0.16l0.64 0.64h-2.24c-0.107 0-0.213 0.107-0.213 0.213s0.107 0.213 0.213 0.213h2.24l-0.64 0.64c-0.053 0.053-0.053 0.107-0.053 0.16 0 0.107 0.107 0.213 0.213 0.213 0.053 0 0.107 0 0.16-0.053l1.173-1.173-1.173-1.173z"></path>
<path fill="#444" d="M4.48 7.093c-0.107 0-0.107 0.053-0.107 0.107s0.053 0.107 0.107 0.107c0.107 0 0.107-0.053 0.107-0.107 0.053-0.053 0-0.107-0.107-0.107z"></path>
<path fill="#444" d="M5.333 6.88v0c0 0-0.053-0.107-0.107-0.107-0.267-0.32-0.8-0.427-1.173 0-0.107 0.107-0.107 0.213-0.213 0.32 0 0-0.053-0.053-0.053-0.107-0.213-0.267-0.427-0.427-0.8-0.427-0.32 0-0.64 0-0.96 0-0.053 0-0.107 0-0.107 0.107 0 0.32 0 0.64 0 0.907 0 0.16 0 0.373 0.053 0.533l-0.8 0.107c0 0-0.053 0-0.107 0 0 0 0 0.053 0 0.107 0 0 0.373 0.853 0.48 1.067 0 0 0.053 0 0.053 0l0.907-0.32c0.107 0.107 0.16 0.16 0.267 0.213 0.267 0.107 0.587 0.16 0.853 0.16 0.8-0.053 1.44-0.693 1.44-1.493 0-0.16 0-0.32 0-0.48s0.107-0.267 0.213-0.373c0 0 0 0 0.053 0 0.053-0.16 0-0.16 0-0.213v0zM1.813 9.013l-0.213-0.48 0.533-0.107c0.053 0.107 0.107 0.213 0.16 0.267l-0.48 0.32zM2.347 6.987v0c0-0.053 0-0.053 0 0 0.107-0.053 0.693-0.053 0.853 0 0.427 0.107 0.533 0.587 0.427 0.853-0.107 0.213-0.267 0.32-0.533 0.373-0.267 0-0.48-0.107-0.64-0.373-0.107-0.267-0.16-0.533-0.107-0.853zM4.8 7.467v0c0 0.16 0 0.32 0 0.427-0.053 0.533-0.32 0.853-0.853 1.013s-0.96 0-1.333-0.427c0-0.053-0.107-0.107-0.107-0.16v0c0.16 0.053 0.267 0.107 0.427 0.107 0.32 0.107 0.587 0 0.8-0.213 0.16-0.16 0.267-0.373 0.267-0.587 0-0.107 0.053-0.267 0.107-0.373s0.16-0.213 0.267-0.32c0.16-0.107 0.427-0.107 0.587 0.053-0.16 0.107-0.213 0.32-0.16 0.48v0z"></path>
<path fill="#444" d="M6.187 8.907v1.387h-5.813v-2.933c0-0.96 0.64-1.6 1.653-1.6h2.453c1.013 0 1.653 0.64 1.653 1.6v0.32h0.373v-0.32c0-1.173-0.8-1.973-2.027-1.973h-2.453c-1.227-0.053-2.027 0.747-2.027 1.973v3.307h6.507v-1.76h-0.32z"></path>
<path fill="#444" d="M13.973 5.333h-2.453c-1.227 0-2.027 0.8-2.027 1.973v3.36h6.507v-3.307c0-1.227-0.8-2.027-2.027-2.027v0zM15.627 7.68v2.613h-5.76v-2.933c0-0.96 0.64-1.6 1.653-1.6h2.453c1.013 0 1.653 0.64 1.653 1.6v0.32z"></path>
<path fill="#444" d="M14.293 7.787c0 0 0 0 0 0v0c0-0.053 0-0.053 0 0 0-0.053 0-0.053 0 0 0-0.053 0-0.053-0.053-0.053l-0.693-0.693c0 0-0.053-0.053-0.107-0.053h-1.387c-0.053 0-0.107 0.053-0.107 0.107v2.56c0 0.053 0.053 0.107 0.107 0.107h2.080c0.053 0 0.107-0.053 0.107-0.107l0.053-1.867c0 0 0 0 0 0v0zM13.92 7.68h-0.32v-0.32l0.32 0.32zM12.267 9.547v-2.293h1.067v0.587c0 0.053 0.053 0.107 0.107 0.107h0.587v1.6h-1.76z"></path>
<path fill="#444" d="M12.587 7.68h0.533c0.053 0 0.107-0.053 0.107-0.107s-0.053-0.107-0.107-0.107h-0.533c-0.053 0-0.107 0.053-0.107 0.107-0.053 0.053 0 0.107 0.107 0.107z"></path>
<path fill="#444" d="M12.587 8.16h0.533c0.053 0 0.107-0.053 0.107-0.107s-0.053-0.107-0.107-0.107h-0.533c-0.053 0-0.107 0.053-0.107 0.107-0.053 0.053 0 0.107 0.107 0.107z"></path>
<path fill="#444" d="M13.867 8.373h-1.28c-0.053 0-0.107 0.053-0.107 0.107s0.053 0.107 0.107 0.107h1.28c0.053 0 0.107-0.053 0.107-0.107s-0.053-0.107-0.107-0.107z"></path>
<path fill="#444" d="M13.867 8.8h-1.28c-0.053 0-0.107 0.053-0.107 0.107s0.053 0.107 0.107 0.107h1.28c0.053 0 0.107-0.053 0.107-0.107s-0.053-0.107-0.107-0.107z"></path>
<path fill="#444" d="M13.173 6.667c0-0.053-0.053-0.107-0.107-0.107h-1.333c-0.053 0-0.107 0.053-0.107 0.107v2.56c0 0.053 0.053 0.107 0.107 0.107s0.107-0.053 0.107-0.107v-2.4h1.227c0.053 0 0.107-0.053 0.107-0.16v0z"></path>
<path fill="#444" d="M12.747 6.347c0-0.053-0.053-0.107-0.107-0.107h-1.333c-0.053 0-0.107 0.053-0.107 0.107v2.56c0 0.053 0.053 0.107 0.107 0.107s0.107-0.053 0.107-0.107v-2.4h1.227c0.053-0.053 0.107-0.107 0.107-0.16v0z"></path>
</svg>
