<!-- Generated by IcoMoon.io -->
<svg version="1.1" xmlns="http://www.w3.org/2000/svg" width="16" height="16" viewBox="0 0 16 16">
<title>donation</title>
<path fill="#444" d="M10.823 11.258c-0.41-0.059-0.891-0.097-1.38-0.106l-0.011-0c-0.021 0-0.046 0.001-0.070 0.001-1.040 0-1.995-0.362-2.747-0.966l0.008 0.007c-0.287-0.185-0.53-0.36-0.764-0.547l0.018 0.014c-0.208-0.107-0.362-0.266-0.57-0.373-0.449-0.339-1.016-0.543-1.631-0.543-0.468 0-0.908 0.118-1.293 0.326l0.014-0.007c-0.469 0.213-0.991 0.426-1.508 0.693l-0.885 0.373v0.64c0.046-0.028 0.1-0.047 0.158-0.053l0.002-0 0.938-0.426c0.533-0.213 0.981-0.426 1.503-0.693 0.301-0.156 0.658-0.248 1.036-0.248 0.488 0 0.94 0.153 1.311 0.413l-0.007-0.005c0.208 0.16 0.368 0.266 0.576 0.426 0.276 0.172 0.514 0.348 0.738 0.54l-0.008-0.007c0.845 0.665 1.924 1.066 3.096 1.066 0.006 0 0.011-0 0.017-0h0.058c0.511 0.011 1.001 0.051 1.482 0.119l-0.065-0.008h-0.048c0.106 0 0.192 0.086 0.192 0.192v0 0 0c0.053 0.266-0.101 0.32-0.155 0.32-0.189 0.075-0.421 0.146-0.659 0.201l-0.034 0.007h-0.197c-0.885 0-1.769 0.053-2.665 0-0.621-0.087-1.181-0.274-1.69-0.546l0.027 0.013c-0.131-0.067-0.286-0.107-0.45-0.107-0.003 0-0.006 0-0.009 0h-0.032c-0.153 0-0.277 0.124-0.277 0.277v0 0c-0 0.005-0.001 0.012-0.001 0.018 0 0.149 0.111 0.272 0.255 0.291l0.001 0c0.018-0.003 0.038-0.005 0.059-0.005 0.075 0 0.145 0.022 0.204 0.059l-0.002-0.001c0.544 0.283 1.176 0.488 1.845 0.583l0.031 0.004c0.309 0.037 0.667 0.059 1.030 0.059 0.013 0 0.025-0 0.038-0h1.81c0.348-0.014 0.674-0.093 0.971-0.225l-0.017 0.007c0.323-0.128 0.548-0.438 0.548-0.8 0-0.056-0.005-0.111-0.016-0.165l0.001 0.005c-0.053-0.586-0.309-0.799-0.73-0.853zM15.992 10.325c-0.069-0.294-0.282-0.527-0.559-0.622l-0.006-0.002c-0.154-0.068-0.333-0.108-0.521-0.108-0.023 0-0.045 0.001-0.068 0.002l0.003-0c-0.034-0.003-0.073-0.004-0.112-0.004s-0.078 0.002-0.117 0.005l0.005-0c-0.285 0.052-0.537 0.128-0.776 0.228l0.025-0.009c-0.147-0.346-0.483-0.584-0.876-0.584-0.058 0-0.114 0.005-0.169 0.015l0.006-0.001c-0.309 0.048-0.57 0.16-0.831 0.208-0.053 0-0.155 0.053-0.208 0.053-0.207-0.205-0.491-0.331-0.805-0.331-0.141 0-0.277 0.026-0.402 0.072l0.008-0.003c-0.533 0.208-0.986 0.469-1.508 0.725l-0.623 0.314c-0.089 0.043-0.149 0.132-0.149 0.236 0 0.001 0 0.003 0 0.004v-0c0.003 0.148 0.123 0.267 0.272 0.267 0.051 0 0.099-0.014 0.14-0.039l-0.001 0.001 0.623-0.314c0.38-0.229 0.831-0.461 1.299-0.663l0.076-0.029 0.080-0.032c0.314-0.16 0.533 0.101 0.623 0.208s0.208 0.101 0.314 0.101c0.122-0.055 0.263-0.092 0.412-0.101l0.004-0c0.194-0.078 0.426-0.148 0.665-0.198l0.028-0.005h0.037c0.256-0.053 0.362 0 0.464 0.416 0.006 0.085 0.075 0.152 0.16 0.155h0c0.029 0.022 0.066 0.036 0.106 0.037h0c0.039-0.001 0.074-0.015 0.102-0.038l-0 0c0.107-0.053 0.208-0.053 0.261-0.107 0.208-0.048 0.416-0.16 0.623-0.208 0.041-0.010 0.089-0.015 0.138-0.015 0.104 0 0.201 0.025 0.287 0.070l-0.003-0.002c0.119 0.045 0.211 0.137 0.255 0.253l0.001 0.003c0.053 0.107 0 0.208-0.101 0.314-0.153 0.178-0.329 0.332-0.523 0.458l-0.009 0.006c-0.831 0.533-1.663 1.092-2.446 1.599-1.066 0.677-2.132 1.354-3.197 2.078-0.323 0.242-0.731 0.387-1.172 0.387-0.374 0-0.724-0.104-1.022-0.286l0.009 0.005c-0.314-0.16-0.576-0.314-0.879-0.469-0.597-0.309-1.236-0.671-1.913-1.050-0.181-0.062-0.39-0.097-0.607-0.097-0.489 0-0.935 0.18-1.277 0.477l0.002-0.002c-0.101 0.107-1.199 0.623-2.132 1.146v0.608c1.716-0.885 2.34-1.247 2.499-1.3 0.187-0.166 0.435-0.268 0.707-0.268 0.242 0 0.465 0.081 0.644 0.217l-0.003-0.002c0.629 0.368 1.306 0.677 1.977 1.066 0.314 0.16 0.576 0.314 0.879 0.469 0.372 0.227 0.821 0.362 1.303 0.362 0.546 0 1.052-0.173 1.465-0.468l-0.008 0.005c1.039-0.677 2.078-1.407 3.197-2.084 0.831-0.533 1.663-1.066 2.441-1.599 0.258-0.181 0.476-0.4 0.65-0.652l0.006-0.009c0.145-0.22 0.232-0.489 0.232-0.779 0-0.032-0.001-0.063-0.003-0.094l0 0.004z"></path>
<path fill="#444" d="M9.315 0.002h-2.665c-0.403 0.002-0.736 0.294-0.804 0.677l-0.001 0.005c-0.001 0.016-0.002 0.035-0.002 0.053s0.001 0.037 0.002 0.056l-0-0.002c-0 0.002-0 0.004-0 0.006 0 0.414 0.31 0.755 0.71 0.804l0.004 0v6.235c0.047 0.736 0.655 1.315 1.399 1.315s1.352-0.579 1.399-1.311l0-0.004v-6.278c0.428-0.003 0.773-0.35 0.773-0.778 0-0.007-0-0.015-0-0.022l0 0.001c0-0.001 0-0.001 0-0.002 0-0.418-0.339-0.757-0.757-0.757-0.021 0-0.041 0.001-0.061 0.002l0.003-0zM8.883 6.722h-1.839v-0.959h0.581c0.001 0 0.002 0 0.003 0 0.116 0 0.213-0.085 0.231-0.196l0-0.001s0 0 0-0.048c-0.003-0.127-0.107-0.229-0.234-0.229-0 0-0 0-0 0h-0.586v-0.885h0.586c0.001 0 0.001 0 0.002 0 0.118 0 0.216-0.088 0.232-0.201l0-0.001s0-0.032 0-0.048c-0.003-0.127-0.107-0.229-0.234-0.229-0 0-0 0-0 0h-0.586v-0.879h0.586c0.118-0.001 0.216-0.088 0.234-0.201l0-0.001s0-0.032 0-0.048c-0.003-0.127-0.107-0.229-0.234-0.229-0 0-0 0-0 0h-0.586v-0.879h1.839v5.036zM9.389 1.068h-2.792c-0.001 0-0.001 0-0.002 0-0.115 0-0.211-0.085-0.227-0.196l-0-0.001c-0.001-0.007-0.002-0.016-0.002-0.024s0.001-0.017 0.002-0.025l-0 0.001c0-0 0-0 0-0 0-0.128 0.102-0.231 0.229-0.234h2.814c0 0 0 0 0 0 0.124 0 0.224 0.1 0.224 0.224 0 0.002-0 0.004-0 0.006v-0c0.048 0.096-0.096 0.24-0.24 0.24z"></path>
</svg>
