<!-- Generated by IcoMoon.io -->
<svg version="1.1" xmlns="http://www.w3.org/2000/svg" width="16" height="16" viewBox="0 0 16 16">
<title>drag</title>
<path fill="#444" d="M0.247 8.405l2.261 2.261c0.095 0.092 0.217 0.157 0.353 0.181l0.004 0.001c0.147-0.003 0.278-0.073 0.362-0.18l0.001-0.001c0.092-0.097 0.157-0.221 0.181-0.359l0.001-0.004v-1.067h3.435v3.435h-1.173c-0.147 0.003-0.278 0.073-0.362 0.18l-0.001 0.001c-0.092 0.097-0.157 0.221-0.181 0.359l-0.001 0.004c0.004 0.145 0.074 0.273 0.18 0.357l0.001 0.001 2.261 2.261c0.116 0.099 0.266 0.161 0.431 0.165l0.001 0c0.145-0.004 0.273-0.074 0.357-0.18l0.001-0.001 2.309-2.261c0.092-0.095 0.157-0.217 0.181-0.353l0.001-0.004c-0.003-0.147-0.073-0.278-0.18-0.362l-0.001-0.001c-0.097-0.092-0.221-0.157-0.359-0.181l-0.004-0.001h-1.173v-3.435h3.435v1.067c0.003 0.147 0.073 0.278 0.18 0.362l0.001 0.001c0.097 0.092 0.221 0.157 0.359 0.181l0.004 0.001c0.133-0.007 0.251-0.069 0.33-0.165l0.001-0.001 2.261-2.261c0.109-0.118 0.177-0.275 0.181-0.447l0-0.001c-0.003-0.147-0.073-0.278-0.18-0.362l-0.001-0.001-2.261-2.261c-0.095-0.092-0.217-0.157-0.353-0.181l-0.004-0.001c-0.147 0.003-0.278 0.073-0.362 0.18l-0.001 0.001c-0.092 0.097-0.157 0.221-0.181 0.359l-0.001 0.004v1.173h-3.435v-3.435h1.173c0.006 0 0.012 0 0.018 0 0.15 0 0.284-0.071 0.37-0.181l0.001-0.001c0.092-0.097 0.157-0.221 0.181-0.359l0.001-0.004c-0.003-0.146-0.073-0.274-0.18-0.357l-0.001-0.001-2.288-2.352c-0.101-0.095-0.231-0.16-0.375-0.181l-0.004-0c-0.176 0-0.267 0.091-0.448 0.181l-2.219 2.261c-0.092 0.095-0.157 0.217-0.181 0.353l-0.001 0.004c0.003 0.147 0.073 0.278 0.18 0.362l0.001 0.001c0.097 0.092 0.221 0.157 0.359 0.181l0.004 0.001h1.173v3.435h-3.371v-1.173c-0.003-0.147-0.073-0.278-0.18-0.362l-0.001-0.001c-0.097-0.092-0.221-0.157-0.359-0.181l-0.004-0.001c-0.146 0.003-0.274 0.073-0.357 0.18l-0.001 0.001-2.261 2.261c-0.092 0.097-0.157 0.221-0.181 0.359l-0.001 0.004c-0.025 0.058-0.040 0.125-0.040 0.196 0 0.13 0.050 0.249 0.131 0.338l-0-0z"></path>
</svg>
