<!-- Generated by IcoMoon.io -->
<svg version="1.1" xmlns="http://www.w3.org/2000/svg" width="16" height="16" viewBox="0 0 16 16">
<title>duplicate</title>
<path fill="#444" d="M13.44 12.747c-0.16 0-0.32-0.053-0.48-0.107v1.333h-6.987v-4.96h3.253c0.213 0 0.373-0.053 0.533-0.213s0.213-0.32 0.213-0.533v-3.253h2.987v0.747c0.16-0.053 0.32-0.107 0.48-0.107s0.32 0.053 0.48 0.107v-0.96c0-0.213-0.053-0.373-0.213-0.533s-0.32-0.213-0.533-0.213h-3.253c-0.32 0-0.64 0.107-1.013 0.32v-2.56c0-0.213-0.053-0.373-0.213-0.533s-0.32-0.213-0.533-0.213h-3.253c-0.213 0-0.427 0.053-0.693 0.16-0.213 0.107-0.373 0.267-0.533 0.373l-3.147 3.2c-0.16 0.16-0.267 0.32-0.373 0.533s-0.16 0.48-0.16 0.693v5.227c0 0.213 0.053 0.373 0.213 0.533s0.32 0.213 0.533 0.213h4.16v2.187c0 0.213 0.053 0.373 0.213 0.533s0.32 0.213 0.533 0.213h7.413c0.213 0 0.373-0.053 0.533-0.213s0.213-0.32 0.213-0.533v-1.493c-0.053 0-0.213 0.053-0.373 0.053v0zM8.96 5.6v2.293h-2.347l2.347-2.293zM4 2.667v2.293h-2.293l2.293-2.293zM5.493 7.68c-0.16 0.16-0.267 0.373-0.373 0.587-0.107 0.267-0.16 0.48-0.16 0.693v1.973h-3.947v-4.96h3.253c0.213 0 0.373-0.053 0.533-0.213s0.213-0.32 0.213-0.533v-3.253h2.987v3.253l-2.507 2.453zM16 9.173c0-0.32-0.213-0.533-0.533-0.533h-1.493v-1.493c0-0.32-0.213-0.533-0.533-0.533s-0.533 0.213-0.533 0.533v1.493h-1.493c-0.32 0-0.533 0.213-0.533 0.533s0.213 0.533 0.533 0.533h1.493v1.493c0 0.32 0.213 0.533 0.533 0.533s0.533-0.213 0.533-0.533v-1.493h1.493c0.32 0 0.533-0.267 0.533-0.533v0z"></path>
</svg>
