<!-- Generated by IcoMoon.io -->
<svg version="1.1" xmlns="http://www.w3.org/2000/svg" width="17" height="16" viewBox="0 0 17 16">
<title>edition-cancel</title>
<path fill="#444" d="M8.148 13.927l0.887-0.887h-5.487v-3.547h4.213c-0.111-0.222-0.111-0.388-0.166-0.61 0-0.222 0-0.388 0.055-0.61h-4.434c-0.277 0-0.443 0.055-0.665 0.277-0.166 0.166-0.277 0.388-0.277 0.665v3.88h-1.053v-11.862h1.164v3.88c0 0.277 0.055 0.443 0.277 0.665 0.166 0.166 0.388 0.277 0.665 0.277h5.266c0.277 0 0.443-0.055 0.665-0.277 0.166-0.166 0.277-0.388 0.277-0.665v-3.88c0.111 0 0.166 0.055 0.388 0.111 0.111 0.055 0.277 0.111 0.333 0.166l2.494 2.605c0.055 0.055 0.111 0.166 0.166 0.333 0.055 0.111 0.111 0.277 0.111 0.333v4.268l1.109-1.109v-3.159c0-0.277-0.055-0.499-0.166-0.831s-0.277-0.499-0.443-0.721l-2.55-2.55c-0.166-0.166-0.388-0.333-0.721-0.443-0.277-0.111-0.554-0.166-0.831-0.166h-8.536c-0.222-0.055-0.443 0-0.61 0.166s-0.277 0.388-0.277 0.665v12.361c0 0.333 0.111 0.499 0.277 0.721 0.166 0.166 0.388 0.277 0.665 0.277h7.039c0-0.111 0.111-0.222 0.166-0.333zM5.931 1.567c0-0.055 0.055-0.111 0.055-0.166 0.055-0.055 0.111-0.055 0.166-0.055h1.718c0.055 0 0.111 0.055 0.166 0.055 0.055 0.055 0.055 0.111 0.055 0.166v2.938c0 0.055-0.055 0.111-0.055 0.166-0.055 0.055-0.111 0.055-0.166 0.055h-1.718c-0.055 0-0.111-0.055-0.166-0.055-0.055-0.055-0.055-0.111-0.055-0.166v-2.938z"></path>
<path fill="#444" d="M16.351 14.703l-2.605-2.661 2.661-2.661c0.333-0.333 0.333-0.776 0-1.053-0.333-0.333-0.776-0.333-1.053 0l-2.661 2.661-2.716-2.716c-0.333-0.333-0.776-0.333-1.053 0-0.333 0.333-0.333 0.776 0 1.053l2.661 2.661-2.661 2.661c-0.333 0.333-0.333 0.776 0 1.053 0.333 0.333 0.776 0.333 1.053 0l2.661-2.661 2.661 2.661c0.333 0.333 0.776 0.333 1.053 0 0.333-0.222 0.333-0.665 0-0.998z"></path>
</svg>
