<!-- Generated by IcoMoon.io -->
<svg version="1.1" xmlns="http://www.w3.org/2000/svg" width="16" height="16" viewBox="0 0 16 16">
<title>exportsensor</title>
<path fill="#444" d="M11.336 7.389c-2.392 0-4.306 1.914-4.306 4.306s1.914 4.306 4.306 4.306c2.392 0 4.306-1.914 4.306-4.306s-1.914-4.306-4.306-4.306v0zM12.186 14.086c-0.213 0.213-0.532 0.213-0.691 0v0c-0.213-0.213-0.213-0.532 0-0.691l1.223-1.223h-3.987c-0.266 0-0.532-0.266-0.532-0.532v0c0-0.266 0.266-0.532 0.532-0.532h4.040l-1.276-1.329c-0.213-0.213-0.213-0.532 0-0.691v0c0.213-0.213 0.532-0.213 0.691 0l2.126 2.286c0.213 0.213 0.106 0.425 0 0.638l-2.126 2.073zM6.020 11.588c0-0.106 0-0.213 0-0.319h-3.296c-0.425 0-0.744 0.319-0.744 0.744v1.595c0 0.425 0.319 0.744 0.744 0.744h4.306c-0.585-0.638-1.010-1.648-1.010-2.764v0zM11.867 3.349h-5.741c0 0.213 0.053 0.372 0.053 0.638 0 0.957-0.266 1.86-0.691 2.551h6.485c0.425 0 0.744-0.319 0.744-0.744v-1.595c0-0.532-0.425-0.851-0.851-0.851v0zM4.851 3.083c-0.106 0-0.266-0.106-0.266-0.266 0-0.744-0.585-1.329-1.329-1.329-0.106 0-0.266-0.106-0.266-0.266s0.106-0.266 0.213-0.266c1.010 0 1.807 0.851 1.807 1.807 0.053 0.159-0.053 0.319-0.159 0.319v0zM5.807 3.083c-0.106 0-0.266-0.106-0.266-0.266 0-1.276-1.063-2.286-2.339-2.286-0.106 0-0.213-0.159-0.213-0.266s0.106-0.266 0.213-0.266c1.542 0 2.764 1.223 2.764 2.764 0.053 0.159-0.053 0.319-0.159 0.319v0zM4.266 3.083c-0.106 0.159-0.266 0.319-0.425 0.372 0.425 0.585 0.478 1.116 0.266 1.329-0.319 0.319-1.223 0-2.073-0.744s-1.116-1.648-0.744-2.073c0.266-0.213 0.797-0.106 1.382 0.266 0.053-0.213 0.213-0.319 0.372-0.372-0.744-0.532-1.595-0.691-1.967-0.319-0.957 0.957-0.957 2.551 0 3.561 0.957 0.957 2.551 0.957 3.561 0 0.319-0.425 0.213-1.276-0.372-2.020v0zM4.053 2.605c0-0.319-0.266-0.638-0.638-0.638-0.266 0-0.532 0.213-0.585 0.372l-0.957 0.213c-0.106 0-0.213 0.106-0.213 0.266s0.106 0.213 0.266 0.213l0.851-0.213c0.053 0.106 0.213 0.266 0.319 0.319l-0.213 0.851c0 0.106 0.106 0.266 0.213 0.266 0 0 0 0 0.053 0 0.106 0 0.213-0.053 0.266-0.213l0.213-0.904c0.319 0 0.425-0.266 0.425-0.532v0zM3.468 6.219c-0.266 0.053-0.425 0.053-0.691 0.053-0.532 0-0.957-0.106-1.435-0.319-0.372 0.266-0.691 0.744-0.691 1.276h3.136c0.053-0.425-0.053-0.744-0.319-1.010v0zM8.625 7.282h-3.774c-0.744 0.851-1.754 1.329-2.87 1.542v0.904c0 0.425 0.319 0.744 0.744 0.744h3.455c0.319-1.329 1.223-2.445 2.445-3.189v0z"></path>
</svg>
