<!-- Generated by IcoMoon.io -->
<svg version="1.1" xmlns="http://www.w3.org/2000/svg" width="16" height="16" viewBox="0 0 16 16">
<title>file_xls</title>
<path fill="#444" d="M15.182 6.282v-1.767l-5.013-4.515h-9.352v6.282h-0.54v6.83h0.54v2.888h14.365v-2.888h0.54v-6.83h-0.54zM14.6 15.418h-13.203v-2.306h13.203v2.306zM3.041 7.635h0.614l0.713 1.005c0.149 0.207 0.25 0.365 0.316 0.481 0.091-0.141 0.191-0.29 0.306-0.447l0.797-1.037h0.564l-1.378 1.851 1.476 2.075h-0.639l-0.987-1.394c-0.058-0.083-0.117-0.165-0.175-0.266-0.091 0.141-0.149 0.24-0.191 0.29l-0.971 1.37h-0.63l1.519-2.042-1.335-1.885zM9.34 11.096v0.465h-2.447v-3.925h0.514v3.46h1.934zM12.286 10.175c-0.075-0.091-0.191-0.165-0.357-0.232-0.109-0.042-0.34-0.109-0.697-0.191s-0.614-0.165-0.755-0.24c-0.191-0.099-0.324-0.216-0.415-0.365s-0.141-0.306-0.141-0.489c0-0.199 0.058-0.382 0.165-0.556 0.117-0.175 0.274-0.298 0.489-0.391 0.216-0.091 0.457-0.133 0.721-0.133 0.29 0 0.548 0.050 0.771 0.141s0.391 0.232 0.514 0.415c0.117 0.183 0.183 0.391 0.191 0.614l-0.498 0.042c-0.024-0.25-0.117-0.431-0.274-0.564-0.157-0.125-0.382-0.191-0.681-0.191-0.316 0-0.54 0.058-0.689 0.175-0.141 0.117-0.216 0.258-0.216 0.415 0 0.141 0.050 0.258 0.149 0.348s0.357 0.183 0.78 0.282c0.423 0.091 0.713 0.183 0.872 0.25 0.224 0.109 0.399 0.24 0.506 0.399s0.165 0.348 0.165 0.556-0.058 0.407-0.183 0.59c-0.117 0.183-0.29 0.332-0.514 0.431s-0.473 0.157-0.755 0.157c-0.357 0-0.655-0.050-0.888-0.157-0.24-0.099-0.431-0.258-0.564-0.465s-0.199-0.447-0.207-0.713v0l0.489-0.042c0.024 0.199 0.075 0.357 0.157 0.481s0.216 0.224 0.399 0.306c0.175 0.075 0.382 0.117 0.598 0.117 0.199 0 0.373-0.032 0.524-0.091s0.266-0.141 0.34-0.24c0.075-0.099 0.109-0.216 0.109-0.332 0-0.13-0.032-0.237-0.107-0.327zM14.6 6.282h-13.203v-5.7h8.19v4.514h5.011v1.186z"></path>
</svg>
