<!-- Generated by IcoMoon.io -->
<svg version="1.1" xmlns="http://www.w3.org/2000/svg" width="16" height="16" viewBox="0 0 16 16">
<title>forward</title>
<path fill="#444" d="M14.668 0.007c-0.733 0-1.332 0.6-1.332 1.332v13.322c0 0.733 0.6 1.332 1.332 1.332s1.332-0.6 1.332-1.332v-13.322c0-0.733-0.6-1.332-1.332-1.332zM9.792 9.092l-7.687 5.422c-0.879 0.626-2.105-0.013-2.105-1.092v-10.844c0-1.079 1.212-1.705 2.105-1.092l7.687 5.422c0.759 0.533 0.759 1.652 0 2.185z"></path>
</svg>
