<!-- Generated by IcoMoon.io -->
<svg version="1.1" xmlns="http://www.w3.org/2000/svg" width="16" height="16" viewBox="0 0 16 16">
<title>gynandromorph</title>
<path fill="#444" d="M13.597 2.46l-0.693-0.746 0.586-0.533c0.213-0.213 0.213-0.533 0.053-0.746-0.213-0.213-0.533-0.213-0.746-0.053l-0.586 0.533-0.693-0.746c-0.213-0.213-0.533-0.213-0.746-0.053-0.213 0.213-0.213 0.533-0.053 0.746l0.746 0.746-1.813 1.653c-1.493-1.279-3.785-1.333-5.331 0.053-0.853 0.746-1.439 2.132-1.333 3.199 0.107 0.96 0.373 1.759 1.013 2.506 0.213 0.267 0.48 0.48 0.8 0.693 0 0.853 0.267 1.706 0.746 2.346l-2.239 2.132v-0.426c0-0.267-0.16-0.48-0.426-0.533-0.32-0.053-0.586 0.16-0.586 0.48l-0.053 1.866c0 0.213 0.16 0.373 0.373 0.373l2.026 0.053c0.32 0 0.586-0.267 0.533-0.586-0.053-0.267-0.267-0.48-0.533-0.48h-0.586l2.186-2.132c0.693 0.586 1.546 0.96 2.559 0.96 2.239 0.053 4.105-1.706 4.158-3.945 0.053-1.493-0.746-2.825-1.919-3.572 0-0.8-0.267-1.546-0.693-2.239l1.813-1.653 0.693 0.746c0.213 0.213 0.533 0.213 0.746 0.053s0.213-0.48 0-0.693v0zM11.945 10.083c-0.16 1.439-1.386 2.559-2.825 2.665-1.599 0.107-2.985-1.066-3.199-2.559 1.279 0.373 2.719 0.107 3.785-0.906 0.586-0.533 0.96-1.173 1.173-1.866 0.746 0.64 1.173 1.653 1.066 2.665v0zM5.974 9.123c0.267-1.279 1.386-2.292 2.772-2.399 0.426-0.053 0.853 0.053 1.226 0.16-0.107 0.586-0.426 1.173-0.906 1.653-0.906 0.8-2.079 0.96-3.092 0.586v0zM9.546 5.711c-0.48-0.053-1.066-0.053-1.066-0.053-1.653 0.16-2.985 1.333-3.465 2.825-0.053-0.053-0.16-0.16-0.213-0.213-1.119-1.226-1.013-3.145 0.213-4.211s3.145-1.013 4.211 0.213c0.373 0.426 0.64 0.96 0.746 1.493-0.107 0-0.267 0-0.426-0.053v0z"></path>
</svg>
