<!-- Generated by IcoMoon.io -->
<svg version="1.1" xmlns="http://www.w3.org/2000/svg" width="16" height="16" viewBox="0 0 16 16">
<title>herbarium</title>
<path fill="#444" d="M4.142 9.789v0 0 0z"></path>
<path fill="#444" d="M3.832 10.499v0 0 0z"></path>
<path fill="#444" d="M3.832 10.499v0 0z"></path>
<path fill="#444" d="M4.954 8.304v0 0 0z"></path>
<path fill="#444" d="M8.089 4.406v0 0 0z"></path>
<path fill="#444" d="M8.382 4.096v0 0 0z"></path>
<path fill="#444" d="M8.398 4.155v0 0 0z"></path>
<path fill="#444" d="M6.545 5.955v0 0 0z"></path>
<path fill="#444" d="M6.62 6.109v0 0 0z"></path>
<path fill="#444" d="M4.073 3.717v0 0z"></path>
<path fill="#444" d="M8.372 3.023v0z"></path>
<path fill="#444" d="M14.791 1.976v0c-0.291-0.261-0.677-0.421-1.101-0.421-0.492 0-0.935 0.216-1.237 0.558l-0.002 0.002c-0.31 0.032-0.62 0.085-0.929 0.139 0.18-0.26 0.288-0.581 0.288-0.928 0-0.53-0.252-1.002-0.642-1.301l-0.004-0.003s-0.037-0.048-0.075 0c-0.282 0.288-0.455 0.683-0.455 1.119 0 0.186 0.032 0.365 0.090 0.532l-0.003-0.011c0.095 0.268 0.243 0.497 0.432 0.683l0 0h-0.091l-0.288 0.069-0.235 0.075c-0.627 0.197-1.157 0.414-1.665 0.67l0.063-0.029c0.358-0.341 0.587-0.815 0.609-1.342l0-0.004v-0.064c-0.010-0.455-0.163-0.873-0.415-1.213l0.004 0.006c-0.15-0.198-0.15-0.198-0.331-0.043-0.429 0.375-0.699 0.923-0.699 1.535 0 0.381 0.105 0.738 0.287 1.043l-0.005-0.009c-0.029-0.023-0.066-0.037-0.107-0.037-0 0-0 0-0 0v0c-0.052 0.001-0.098 0.026-0.128 0.064l-0 0c-0.047 0.022-0.081 0.065-0.091 0.117l-0 0.001c-0 0.002-0 0.005-0 0.007 0 0.043 0.019 0.083 0.048 0.11l0 0h0.032c0.026 0.020 0.060 0.032 0.096 0.032v0c0.001 0 0.001 0 0.002 0 0.088 0 0.161-0.064 0.174-0.149l0-0.001c0-0.001 0-0.003 0-0.004 0-0.040-0.012-0.077-0.033-0.109l0 0.001c0.063 0.101 0.13 0.188 0.204 0.268l-0.001-0.001c-0.609 0.334-1.134 0.688-1.622 1.084l0.020-0.016c0.228-0.342 0.363-0.762 0.363-1.214 0-0.003 0-0.006-0-0.009v0-0.091c-0.013-0.634-0.287-1.202-0.719-1.601l-0.002-0.001c-0.032 0-0.048-0.064-0.096 0-0.444 0.396-0.727 0.964-0.742 1.599l-0 0.003v0.091c0 0.002-0 0.005-0 0.007 0 0.493 0.165 0.948 0.442 1.312l-0.004-0.005s0 0 0 0v0c-0.028-0.016-0.061-0.026-0.096-0.027h-0c-0.002-0-0.003-0-0.005-0-0.118 0-0.214 0.096-0.214 0.214 0 0 0 0 0 0v0c0.001 0.072 0.036 0.136 0.090 0.176l0.001 0s0 0 0.037 0c0.013 0.002 0.028 0.004 0.043 0.004s0.030-0.001 0.044-0.004l-0.001 0c0 0 0 0 0 0 0.122 0 0.221-0.097 0.224-0.219v-0c0-0 0-0 0-0 0-0.055-0.025-0.105-0.064-0.138l-0-0c0.074 0.096 0.151 0.182 0.234 0.261l0.001 0.001c-0.384 0.335-0.733 0.684-1.057 1.055l-0.011 0.013c0.031-0.141 0.048-0.304 0.048-0.471 0-0.007-0-0.015-0-0.022l0 0.001c-0.003-0.974-0.55-1.819-1.353-2.247l-0.014-0.007c-0.192-0.096-0.192-0.096-0.278 0.096-0.193 0.344-0.306 0.754-0.306 1.192 0 0.295 0.051 0.577 0.146 0.839l-0.005-0.017c0.183 0.481 0.48 0.883 0.86 1.187l0.005 0.004c-0.022-0.006-0.046-0.010-0.072-0.010s-0.050 0.004-0.074 0.010l0.002-0c-0.102 0.001-0.191 0.056-0.24 0.138l-0.001 0.001c-0.020 0.037-0.032 0.081-0.032 0.128 0 0.002 0 0.004 0 0.006v-0c0.001 0.087 0.042 0.164 0.106 0.213l0.001 0h0.027l0.059 0.027c0.017 0.004 0.036 0.006 0.056 0.006s0.039-0.002 0.058-0.007l-0.002 0c0.147 0 0.267-0.12 0.267-0.267v0 0 0c-0.007-0.069-0.036-0.13-0.080-0.176l0 0s0 0 0 0v0c0.069 0.049 0.149 0.101 0.232 0.148l0.014 0.007c-0.319 0.441-0.618 0.941-0.871 1.468l-0.026 0.059v0.059c0.006-0.068 0.009-0.148 0.009-0.228 0-1.451-1.078-2.651-2.478-2.841l-0.015-0.002c-0.224-0.032-0.224-0.032-0.262 0.198-0.029 0.151-0.046 0.325-0.046 0.503 0 0.642 0.218 1.233 0.585 1.703l-0.005-0.006c0.393 0.471 0.917 0.821 1.516 0.993l0.022 0.005v0.027s0 0 0 0c-0.054-0.029-0.118-0.047-0.187-0.047-0.149 0-0.279 0.083-0.346 0.205l-0.001 0.002c-0.030 0.055-0.048 0.12-0.048 0.189 0 0.001 0 0.002 0 0.004v-0c0.002 0.13 0.064 0.246 0.159 0.32l0.001 0.001s0.053 0.032 0.064 0.048c0.047 0.020 0.102 0.032 0.16 0.032 0.002 0 0.004-0 0.006-0h-0c0.218 0 0.395-0.177 0.395-0.395v0-0.027c0-0 0-0.001 0-0.001 0-0.101-0.043-0.192-0.112-0.255l-0-0s0 0 0 0c0.007-0.019 0.018-0.035 0.032-0.048l0-0c0.001-0.004 0.002-0.009 0.002-0.013s-0.001-0.009-0.002-0.014l0 0 0.262 0.053h0.096c-0.107 0.256-0.198 0.534-0.283 0.78 0 0.085-0.096 0.187-0.069 0.256s0.166 0.064 0.256 0.096 0.096 0 0.117-0.064 0.075-0.246 0.117-0.368c0.070 0.16 0.143 0.295 0.226 0.423l-0.007-0.012c-0.001-0-0.002-0-0.003-0-0.018 0-0.033 0.011-0.040 0.027l-0 0c-0.001 0.005-0.002 0.010-0.002 0.016s0.001 0.011 0.002 0.017l-0-0.001s0 0 0 0h-0.144c-0.002-0-0.005-0-0.007-0-0.164 0-0.301 0.116-0.334 0.27l-0 0.002c-0.003 0.014-0.004 0.029-0.004 0.045s0.002 0.032 0.004 0.047l-0-0.002c0 0 0 0 0 0.001 0 0.151 0.094 0.279 0.227 0.33l0.002 0.001h0.123c0.198 0 0.358-0.16 0.358-0.358v0c0.003-0.018 0.004-0.038 0.004-0.059s-0.002-0.041-0.005-0.061l0 0.002h-0.053c-0.035-0.079-0.092-0.143-0.164-0.186l-0.002-0.001s0 0 0 0c0.001-0.007 0.002-0.016 0.002-0.024s-0.001-0.017-0.002-0.025l0 0.001c0.335 0.519 0.829 0.911 1.412 1.11l0.019 0.006c0.299 0.105 0.643 0.166 1.002 0.166 0.443 0 0.864-0.093 1.245-0.259l-0.020 0.008c0.219-0.096 0.219-0.096 0.117-0.315-0.467-1.045-1.497-1.76-2.695-1.76-0.442 0-0.862 0.098-1.238 0.272l0.018-0.008c0.085-0.219 0.176-0.433 0.278-0.646s0.208-0.438 0.326-0.646c0.081 0.118 0.161 0.221 0.248 0.318l-0.003-0.003v0.027c-0.018-0.004-0.040-0.006-0.061-0.006s-0.043 0.002-0.063 0.006l0.002-0c-0.104 0-0.194 0.055-0.245 0.138l-0.001 0.001c-0.022 0.040-0.036 0.088-0.037 0.138l-0 0.001c-0 0.001-0 0.003-0 0.004 0 0.089 0.044 0.167 0.111 0.214l0.001 0.001c0.009 0.003 0.019 0.005 0.029 0.005s0.021-0.002 0.030-0.005l-0.001 0c0.032 0.017 0.071 0.027 0.111 0.027 0 0 0.001 0 0.001 0h-0c0.15 0 0.272-0.122 0.272-0.272v0c-0.004-0.071-0.034-0.134-0.080-0.182l0 0s0 0 0 0l0.027-0.032c0.364 0.401 0.856 0.68 1.412 0.772l0.014 0.002c0.128 0.021 0.276 0.033 0.426 0.033 0.562 0 1.085-0.166 1.523-0.45l-0.011 0.007c0.182-0.123 0.182-0.123 0.059-0.299-0.48-0.712-1.283-1.174-2.195-1.174-0.473 0-0.917 0.124-1.301 0.342l0.013-0.007c0.451-0.695 0.94-1.299 1.485-1.849l-0.001 0.001c0.065 0.163 0.137 0.302 0.22 0.432l-0.006-0.011s0 0 0 0v0c-0.015-0.004-0.033-0.006-0.051-0.006s-0.036 0.002-0.052 0.007l0.001-0c-0 0-0.001 0-0.001 0-0.090 0-0.169 0.049-0.212 0.122l-0.001 0.001c-0.020 0.030-0.032 0.068-0.032 0.108 0 0.001 0 0.003 0 0.004v-0c0 0 0 0 0 0 0 0.080 0.037 0.151 0.096 0.197l0.001 0h0.048c0.014 0.004 0.031 0.006 0.048 0.006s0.034-0.002 0.049-0.006l-0.001 0c0.133 0 0.24-0.108 0.24-0.24v0 0c-0.006-0.060-0.032-0.114-0.070-0.155l0 0s0 0 0 0v0 0 0 0c0.27 0.423 0.69 0.729 1.183 0.847l0.013 0.003c0.157 0.038 0.338 0.060 0.523 0.060 0.3 0 0.586-0.057 0.849-0.162l-0.016 0.005c0.043 0 0.053-0.032 0.037-0.085-0.28-0.864-1.074-1.48-2.012-1.49l-0.001-0c-0.005-0-0.011-0-0.016-0-0.163 0-0.321 0.019-0.473 0.056l0.014-0.003c0.475-0.44 0.999-0.842 1.558-1.192l0.044-0.026 0.048-0.027c0 0.069 0.048 0.133 0.075 0.198h-0.059c-0.032-0.026-0.073-0.042-0.117-0.043h-0c-0.001-0-0.002-0-0.003-0-0.062 0-0.117 0.029-0.152 0.074l-0 0c-0.030 0.032-0.048 0.076-0.048 0.123 0 0.002 0 0.004 0 0.005v-0c0 0 0 0 0 0.001 0 0.052 0.020 0.098 0.053 0.133l0.027 0.027c0.033 0.027 0.076 0.043 0.123 0.043 0.109 0 0.198-0.088 0.198-0.198 0-0.047-0.016-0.090-0.043-0.124l0 0s0 0 0 0v0 0 0c0.238 0.596 0.75 1.038 1.376 1.173l0.013 0.002c0.128 0.027 0.275 0.043 0.425 0.043 0.003 0 0.005 0 0.008-0h-0c0.279-0.001 0.545-0.054 0.789-0.149l-0.015 0.005c0.048 0 0.048-0.043 0.032-0.080-0.245-0.833-1.002-1.431-1.899-1.431-0.191 0-0.375 0.027-0.55 0.078l0.014-0.003c0.59-0.349 1.273-0.662 1.99-0.902l0.077-0.022 0.080-0.027c0.015 0.067 0.032 0.122 0.051 0.176l-0.003-0.010h-0.027c-0.012-0.004-0.026-0.006-0.040-0.006s-0.028 0.002-0.041 0.007l0.001-0c-0.038 0.001-0.072 0.017-0.096 0.043l-0 0c-0.017 0.024-0.027 0.053-0.027 0.085 0 0 0 0 0 0v-0c-0 0.001-0 0.002-0 0.003 0 0.032 0.012 0.061 0.032 0.083l-0-0c0.010 0.003 0.022 0.004 0.035 0.004s0.024-0.001 0.036-0.004l-0.001 0c0.002 0 0.004 0 0.005 0 0.066 0 0.12-0.052 0.123-0.117l0-0s0 0 0 0c0.002-0.010 0.003-0.021 0.003-0.032s-0.001-0.022-0.004-0.033l0 0.001c0.16 0.53 0.553 0.945 1.056 1.134l0.012 0.004c0.19 0.064 0.408 0.101 0.635 0.101 0.002 0 0.004 0 0.006-0h-0c0.003 0 0.006 0 0.009 0 0.16 0 0.315-0.018 0.465-0.051l-0.014 0.003c0.048 0 0.048-0.027 0.043-0.064-0.121-0.764-0.705-1.364-1.452-1.504l-0.011-0.002c0.299-0.059 0.598-0.101 0.903-0.144h0.059c0.256 0.183 0.574 0.292 0.918 0.294h0c0.193-0.003 0.376-0.040 0.545-0.105l-0.011 0.004c0.322-0.128 0.592-0.329 0.798-0.584l0.003-0.004c0.064-0.075 0.048-0.091 0.021-0.117zM3.453 8.069v0c-0.349-0.091-0.654-0.25-0.912-0.463l0.004 0.003c-0.513-0.42-0.843-1.049-0.86-1.754l-0-0.003c0-0.192 0-0.192 0.171-0.133 0.939 0.332 1.599 1.212 1.599 2.246 0 0.037-0.001 0.073-0.002 0.109l0-0.005zM4.719 9.399v0c0.154-0.038 0.33-0.059 0.512-0.059 0.827 0 1.548 0.449 1.934 1.117l0.006 0.011c-0.202 0.071-0.435 0.112-0.677 0.112-0 0-0.001 0-0.001 0h0c-0.042 0.003-0.090 0.004-0.139 0.004s-0.097-0.002-0.145-0.004l0.007 0c-0.655-0.092-1.209-0.459-1.549-0.98l-0.005-0.008c-0.117-0.155-0.117-0.155 0.059-0.192zM5.338 7.589v0c0.234-0.104 0.508-0.164 0.796-0.164 0.607 0 1.152 0.27 1.52 0.696l0.002 0.003c-0.238 0.13-0.519 0.212-0.819 0.224l-0.004 0h-0.112c-0.54-0.005-1.028-0.224-1.383-0.577l0 0c-0.144-0.112-0.144-0.117 0-0.182zM4.916 6.125c-0.257-0.164-0.467-0.379-0.62-0.632l-0.005-0.009c-0.201-0.312-0.32-0.692-0.32-1.101 0-0.004 0-0.007 0-0.011v0.001c0-0.219 0.033-0.43 0.095-0.629l-0.004 0.015c0.043-0.166 0.043-0.166 0.187-0.069 0.499 0.395 0.816 1 0.816 1.68 0 0.272-0.051 0.531-0.143 0.77l0.005-0.015zM8.692 6.414v0c-0.123 0.033-0.265 0.053-0.411 0.053h-0c-0 0-0.001 0-0.001 0-0.668 0-1.246-0.383-1.527-0.941l-0.004-0.010c0.129-0.035 0.277-0.055 0.429-0.055 0.666 0 1.243 0.384 1.521 0.942l0.004 0.010zM6.481 4.144c-0.184-0.284-0.294-0.63-0.294-1.003 0-0.412 0.134-0.793 0.361-1.101l-0.004 0.005 0.048-0.053c0.246 0.309 0.394 0.705 0.394 1.135 0 0.372-0.111 0.719-0.302 1.008l0.004-0.007c-0.101 0.182-0.101 0.182-0.208 0.016zM9.125 4.021c0.642 0.002 1.196 0.371 1.464 0.909l0.004 0.010c-0.115 0.030-0.248 0.047-0.384 0.047-0.64 0-1.193-0.375-1.449-0.918l-0.004-0.010c0.102-0.024 0.218-0.038 0.338-0.038 0.011 0 0.021 0 0.032 0l-0.002-0zM8.708 2.862c-0.16-0.251-0.255-0.556-0.255-0.884 0-0.455 0.183-0.867 0.479-1.167l-0 0c0.165 0.251 0.264 0.558 0.264 0.888 0 0.455-0.187 0.867-0.488 1.162l-0 0zM11.149 0.379v0c0.231 0.241 0.373 0.569 0.374 0.929v0c0 0.001 0 0.002 0 0.003 0 0.281-0.088 0.541-0.238 0.754l0.003-0.004c-0.234-0.238-0.378-0.564-0.378-0.925 0-0.284 0.090-0.547 0.242-0.762l-0.003 0.004zM12.665 3.898v0 0c-0.048 0.006-0.103 0.009-0.159 0.009-0.648 0-1.197-0.423-1.387-1.008l-0.003-0.010h0.15c0 0 0 0 0 0 0.648 0 1.198 0.418 1.396 0.999l0.003 0.010zM14.417 2.051c-0.244 0.245-0.581 0.396-0.954 0.396-0.264 0-0.51-0.076-0.718-0.207l0.006 0.003c0.244-0.235 0.577-0.379 0.943-0.379 0.001 0 0.002 0 0.003 0h-0c0.010-0 0.021-0 0.033-0 0.254 0 0.492 0.072 0.694 0.196l-0.006-0.003z"></path>
<path fill="#444" d="M8.11 3.29v0 0 0z"></path>
<path fill="#444" d="M3.464 8.903v0 0z"></path>
<path fill="#444" d="M7.384 3.092v0 0 0z"></path>
<path fill="#444" d="M10.924 2.115v0 0s0 0 0 0h-0.032c-0.019-0.016-0.043-0.026-0.069-0.026s-0.051 0.010-0.070 0.026l0-0c-0.003 0.010-0.005 0.021-0.005 0.032s0.002 0.022 0.005 0.033l-0-0.001c0.001 0.028 0.011 0.054 0.027 0.075l-0-0s0 0 0 0c0.009 0.003 0.019 0.004 0.029 0.004s0.021-0.002 0.030-0.004l-0.001 0c0 0 0 0 0.001 0 0.052 0 0.095-0.040 0.101-0.090l0-0c0.003-0.010 0.005-0.022 0.005-0.035s-0.002-0.024-0.005-0.036l0 0.001z"></path>
<path fill="#444" d="M10.77 2.264v0 0 0z"></path>
<path fill="#444" d="M3.587 16h8.764v-2.537h-8.764zM12.217 13.591v2.275h-8.481v-2.275z"></path>
<path fill="#444" d="M9.958 14.093h-4.037v0.053h4.037v-0.053z"></path>
<path fill="#444" d="M4.863 14.494h6.158v0.053h-6.158v-0.053z"></path>
<path fill="#444" d="M4.863 14.889h6.158v0.053h-6.158v-0.053z"></path>
<path fill="#444" d="M4.863 15.354h6.158v0.053h-6.158v-0.053z"></path>
</svg>
