<!-- Generated by IcoMoon.io -->
<svg version="1.1" xmlns="http://www.w3.org/2000/svg" width="16" height="16" viewBox="0 0 16 16">
<title>individualsmall</title>
<path fill="#444" d="M11.253 6.4c-1.387 0-2.56 1.173-2.56 2.56 0 0.427 0.267 0.693 0.693 0.693s0.693-0.267 0.693-0.693c0-0.64 0.533-1.12 1.12-1.12 0.427 0 0.693-0.267 0.693-0.693 0.053-0.48-0.32-0.747-0.64-0.747v0zM5.867 9.12c-0.427 0-0.693 0.267-0.693 0.693s0.267 0.693 0.693 0.693c0.64 0 1.12 0.533 1.12 1.12 0 0.427 0.267 0.693 0.693 0.693s0.693-0.267 0.693-0.693c0.053-1.387-1.12-2.507-2.507-2.507v0zM6.56 3.947c-1.067 0-1.92 0.853-1.92 1.92s0.853 1.92 1.92 1.92 1.92-0.853 1.92-1.92-0.853-1.92-1.92-1.92v0zM6.56 6.773c-0.48 0-0.853-0.427-0.853-0.853 0-0.48 0.427-0.853 0.853-0.853 0.48 0 0.853 0.427 0.853 0.853s-0.373 0.853-0.853 0.853zM15.253 7.253h-0.48c-0.107-1.333-0.693-2.613-1.493-3.627l0.267-0.267c0.32-0.267 0.32-0.693 0-0.96-0.267-0.267-0.693-0.267-0.96 0l-0.32 0.267c-0.96-0.8-2.24-1.333-3.573-1.493v-0.48c0-0.427-0.267-0.693-0.693-0.693s-0.693 0.267-0.693 0.693v0.48c-1.333 0.107-2.613 0.693-3.573 1.493l-0.373-0.267c-0.267-0.32-0.693-0.32-0.96 0s-0.267 0.693 0 1.013l0.267 0.267c-0.8 1.013-1.333 2.293-1.493 3.627h-0.48c-0.427 0-0.693 0.267-0.693 0.693s0.267 0.693 0.693 0.693h0.48c0.107 1.333 0.693 2.613 1.493 3.573l-0.267 0.373c-0.267 0.267-0.267 0.693 0 1.013 0.107 0.107 0.373 0.213 0.533 0.213s0.373-0.053 0.533-0.213l0.267-0.32c0.96 0.8 2.24 1.333 3.573 1.493v0.48c0 0.427 0.267 0.693 0.693 0.693s0.693-0.267 0.693-0.693v-0.48c1.333-0.107 2.613-0.693 3.573-1.493l0.267 0.267c0.107 0.107 0.373 0.213 0.533 0.213s0.373-0.053 0.533-0.213c0.267-0.267 0.267-0.693 0-1.013l-0.267-0.267c0.8-1.013 1.333-2.293 1.493-3.627h0.48c0.427 0 0.693-0.267 0.693-0.693-0.053-0.373-0.427-0.747-0.747-0.747v0zM8 13.493c-3.040 0-5.44-2.453-5.44-5.493s2.4-5.44 5.44-5.44c3.040 0 5.44 2.453 5.44 5.493s-2.4 5.44-5.44 5.44v0z"></path>
</svg>
