<!-- Generated by IcoMoon.io -->
<svg version="1.1" xmlns="http://www.w3.org/2000/svg" width="16" height="16" viewBox="0 0 16 16">
<title>logo-parameter-mgt</title>
<path fill="#444" d="M13.614 11.117c-0.694-0.694-1.922-1.815-3.15-2.83-1.121-1.014-2.296-2.029-2.99-2.723 0.32-2.029-1.014-4.005-3.097-4.325-0.801-0.107-1.602 0-2.296 0.32-0.16 0.107-0.267 0.374-0.16 0.587 0 0.053 0.053 0.107 0.107 0.107l2.349 1.976-1.175 1.335-2.349-2.029c-0.16-0.107-0.427-0.107-0.587 0.053 0 0.053-0.053 0.107-0.053 0.16-0.694 1.976 0.374 4.111 2.349 4.752 0.641 0.214 1.281 0.267 1.922 0.107 0 0 0 0 0.053 0.053 0.694 0.748 2.029 1.869 3.257 2.937 1.121 1.014 2.189 1.922 2.83 2.563 0.427 0.427 0.961 0.641 1.548 0.641h0.053c0.587 0 1.121-0.267 1.495-0.694 0.801-0.801 0.748-2.082-0.107-2.99zM3.843 6.098l1.175-1.388c0.267-0.32 0.214-0.801-0.107-1.068l-1.869-1.548c1.602-0.374 3.204 0.587 3.577 2.136 0.107 0.427 0.107 0.908 0 1.388 0 0.107 0 0.214 0.053 0.267 0.053 0.107 0.107 0.16 0.16 0.214 0.694 0.694 1.922 1.762 3.097 2.776 1.175 1.068 2.403 2.136 3.097 2.83 0.534 0.534 0.587 1.388 0.107 1.922-0.267 0.267-0.587 0.427-0.961 0.427s-0.748-0.16-1.014-0.427c-0.641-0.641-1.709-1.602-2.883-2.563-1.228-1.068-2.51-2.243-3.204-2.937-0.107-0.107-0.214-0.214-0.374-0.267-0.107-0.053-0.16-0.053-0.267-0.053-1.335 0.32-2.776-0.32-3.364-1.548-0.267-0.534-0.374-1.068-0.267-1.655l1.922 1.602c0.32 0.267 0.801 0.214 1.121-0.107z"></path>
<path fill="#444" d="M15.75 8.020l-0.481-0.374c0 0-0.053-0.053-0.053-0.053v-0.427c0-0.053 0-0.053 0.053-0.053l0.427-0.427c0.214-0.214 0.267-0.587 0.16-0.854l-0.267-0.534c-0.16-0.267-0.427-0.481-0.801-0.427l-0.587 0.053c-0.053 0-0.053 0-0.107 0l-0.32-0.267c0 0-0.053-0.053-0.053-0.053v-0.587c0-0.32-0.214-0.587-0.534-0.694l-0.534-0.16c-0.32-0.107-0.641 0-0.854 0.267l-0.32 0.32c0 0-0.053 0.053-0.053 0.053h-0.427c-0.053 0-0.053 0-0.053-0.053l-0.427-0.374c-0.214-0.214-0.587-0.267-0.854-0.16l-0.534 0.267c-0.267 0.16-0.481 0.427-0.427 0.801l0.053 0.587c0 0.053 0 0.053 0 0.107l-0.32 0.32 1.869 1.709 0.214-0.214c0.427-0.427 1.014-0.481 1.388-0.374 0.481 0.16 1.014 0.694 0.854 1.602 0 0 0 0.053 0 0.053-0.053 0.16-0.16 0.267-0.267 0.374v0l-0.16 0.107-0.107 0.107 1.869 1.709 0.107-0.107 0.053-0.107 0.16-0.214c0 0 0.053-0.053 0.053-0.053h0.587c0.32 0 0.587-0.214 0.694-0.534l0.16-0.534c0.16-0.267 0.107-0.641-0.16-0.801zM13.988 9.462l-0.908-0.801c0.053-0.107 0.16-0.214 0.214-0.32 0.053-0.053 0.053-0.16 0.107-0.267 0.214-1.228-0.481-2.082-1.281-2.349-0.641-0.214-1.335-0.107-1.869 0.32l-0.908-0.801c0.107-0.16 0.16-0.32 0.107-0.481l-0.053-0.587c0-0.053 0-0.107 0.053-0.107l0.534-0.267c0.053 0 0.107 0 0.107 0l0.427 0.374c0.16 0.16 0.32 0.214 0.534 0.214h0.427c0.214 0 0.481-0.107 0.587-0.267l0.374-0.481c0-0.053 0.053-0.053 0.107-0.053l0.534 0.16c0.053 0 0.053 0.053 0.053 0.107v0.587c0 0.214 0.107 0.427 0.267 0.587l0.32 0.267c0.16 0.16 0.374 0.214 0.587 0.214l0.587-0.053c0.053 0 0.107 0 0.107 0.053l0.267 0.534c0 0.053 0 0.107 0 0.107l-0.427 0.427c-0.16 0.16-0.214 0.374-0.214 0.587v0.427c0 0.214 0.107 0.427 0.267 0.534l0.481 0.374c0.053 0.053 0.053 0.053 0.053 0.107l-0.16 0.534c0 0.053-0.053 0.053-0.107 0.053h-0.587c-0.267 0.053-0.481 0.16-0.587 0.267z"></path>
</svg>
