<!-- Generated by IcoMoon.io -->
<svg version="1.1" xmlns="http://www.w3.org/2000/svg" width="16" height="16" viewBox="0 0 16 16">
<title>logo-parameter-color</title>
<path fill="#009688" d="M6.186 8.106l-0.747-0.214c-0.641-0.214-1.12-0.8-1.12-1.547 0-0.906 0.747-1.653 1.653-1.653 0.694 0 1.333 0.427 1.547 1.12l0.267 0.694 3.414-3.413-1.547-1.547c-0.32-0.32-0.853-0.32-1.173 0l-0.373 0.373c-0.159-0.053-0.32-0.159-0.48-0.214v-0.533c0-0.48-0.373-0.853-0.853-0.853h-1.653c-0.48 0-0.853 0.373-0.853 0.853v0.533c-0.053 0.053-0.214 0.106-0.373 0.214l-0.373-0.373c-0.32-0.32-0.853-0.32-1.173 0l-1.173 1.12c-0.32 0.32-0.32 0.853 0 1.173l0.373 0.373c-0.053 0.159-0.106 0.32-0.159 0.48h-0.534c-0.48 0-0.853 0.373-0.853 0.853v1.653c0 0.48 0.373 0.853 0.853 0.853h0.533c0.053 0.159 0.106 0.32 0.214 0.48l-0.373 0.373c-0.159 0.159-0.267 0.373-0.267 0.586s0.106 0.48 0.267 0.641l1.547 1.547 3.413-3.573zM2.506 8.32c-0.159-0.267-0.267-0.586-0.373-0.906l-0.106-0.32h-1.12v-1.494h1.173l0.106-0.32c0.053-0.32 0.214-0.586 0.373-0.906l0.159-0.32-0.8-0.8 1.014-1.014 0.8 0.8 0.32-0.159c0.32-0.159 0.586-0.32 0.906-0.373l0.32-0.106v-1.12h1.494v1.12l0.32 0.106c0.32 0.053 0.586 0.214 0.906 0.373l0.32 0.159 0.8-0.8 0.853 0.853-1.814 1.814c-0.48-0.694-1.28-1.12-2.133-1.12-1.441 0-2.614 1.173-2.614 2.614 0 0.853 0.427 1.653 1.12 2.080l-1.813 1.814-0.853-0.853 0.8-0.8-0.161-0.32z"></path>
<path fill="#009688" d="M15.68 4.32l-1.706-1.706c-0.214-0.214-0.427-0.267-0.694-0.267s-0.48 0.053-0.641 0.267l-1.441 1.441 3.094 3.094 1.441-1.441c0.159-0.214 0.267-0.427 0.267-0.694s-0.106-0.534-0.32-0.694v0zM15.041 5.067l-0.747 0.747-1.761-1.814 0.747-0.747h0.053l1.706 1.706c0.055 0.055 0.055 0.055 0.002 0.108 0.053-0.053 0.053 0 0 0v0z"></path>
<path fill="#009688" d="M4.959 10.294l-1.547 1.547c-0.106 0.106-0.214 0.267-0.267 0.427l-0.533 2.241c-0.053 0.32 0.053 0.641 0.267 0.906 0.214 0.214 0.427 0.267 0.694 0.267 0.053 0 0.159 0 0.214 0l2.186-0.48c0.159-0.053 0.32-0.106 0.48-0.267l7.414-7.359-3.094-3.094-5.814 5.813zM5.814 14.241c0 0 0 0.053 0 0l-2.241 0.533h-0.053v-0.053l0.48-2.188c0-0.053 0-0.053 0-0.053l6.72-6.72 1.759 1.759-6.666 6.722z"></path>
</svg>
