<!-- Generated by IcoMoon.io -->
<svg version="1.1" xmlns="http://www.w3.org/2000/svg" width="16" height="16" viewBox="0 0 16 16">
<title>logo-position</title>
<path fill="#444" d="M15.68 9.44h-1.493c0.053-0.053 0.107-0.213 0.107-0.32v-2.133c0-0.267-0.213-0.427-0.48-0.427h-2.080c-0.267 0-0.48 0.213-0.48 0.427v2.133c0 0.107 0.053 0.267 0.107 0.32h-1.867c0.053-0.053 0.107-0.213 0.107-0.32v-2.133c0-0.267-0.213-0.427-0.48-0.427h-2.080c-0.267 0-0.48 0.213-0.48 0.427v2.133c0 0.107 0.053 0.267 0.107 0.32h-2.080c0.053-0.053 0.053-0.107 0.053-0.267v-1.653c0-0.213-0.213-0.373-0.373-0.373h-1.653c-0.213 0-0.373 0.213-0.373 0.373v1.653c0 0.053 0.053 0.213 0.053 0.267h-1.867c-0.267 0-0.427 0.213-0.427 0.427s0.213 0.427 0.427 0.427h14.987c0.267 0 0.427-0.213 0.427-0.427s0.107-0.427-0.16-0.427v0z"></path>
<path fill="#444" d="M13.653 12.053h-1.653c-0.213 0-0.373 0.213-0.373 0.373v1.653c0 0.213 0.213 0.373 0.373 0.373h1.653c0.213 0 0.373-0.213 0.373-0.373v-1.653c0-0.213-0.16-0.373-0.373-0.373z"></path>
<path fill="#444" d="M9.28 11.413h-2.080c-0.267 0-0.48 0.213-0.48 0.427v2.133c0 0.267 0.213 0.427 0.48 0.427h2.080c0.267 0 0.48-0.213 0.48-0.427v-2.133c-0.053-0.267-0.213-0.427-0.48-0.427v0z"></path>
<path fill="#444" d="M4.693 11.413h-2.080c-0.267 0-0.48 0.213-0.48 0.427v2.133c0 0.213 0.213 0.427 0.48 0.427h2.080c0.267 0 0.48-0.213 0.48-0.427v-2.133c0.053-0.267-0.213-0.427-0.48-0.427v0z"></path>
<path fill="#444" d="M15.68 4.533h-1.76c0.267 0 0.427-0.213 0.427-0.427v-2.133c0-0.267-0.213-0.427-0.48-0.427h-2.080c-0.267 0-0.48 0.213-0.48 0.427v2.133c0 0.267 0.213 0.427 0.427 0.427h-2.72c0.213 0 0.373-0.213 0.373-0.373v-1.707c0-0.213-0.213-0.373-0.373-0.373h-1.707c-0.213 0-0.373 0.213-0.373 0.373v1.707c0 0.213 0.213 0.373 0.373 0.373h-2.613c0.267 0 0.427-0.213 0.427-0.427v-2.133c0-0.267-0.213-0.427-0.48-0.427h-2.080c-0.267 0-0.48 0.213-0.48 0.427v2.133c0 0.267 0.213 0.427 0.427 0.427h-1.92c-0.267 0-0.427 0.213-0.427 0.427s0.213 0.427 0.427 0.427h14.987c0.267 0 0.427-0.213 0.427-0.427s-0.053-0.427-0.32-0.427v0z"></path>
</svg>
