<!-- Generated by IcoMoon.io -->
<svg version="1.1" xmlns="http://www.w3.org/2000/svg" width="16" height="16" viewBox="0 0 16 16">
<title>logo-qrtag</title>
<path fill="#444" d="M0.027 2.977v-2.339c0-0.372 0.266-0.638 0.638-0.638h2.392c0.319 0 0.638 0.266 0.638 0.638s-0.319 0.585-0.691 0.585h-1.754v1.754c0 0.319-0.266 0.638-0.638 0.638s-0.585-0.266-0.585-0.638zM15.336 0h-2.392c-0.319 0-0.638 0.266-0.638 0.638s0.266 0.638 0.638 0.638h1.754v1.754c0 0.319 0.266 0.638 0.638 0.638s0.638-0.319 0.638-0.691v-2.339c0-0.372-0.266-0.638-0.638-0.638zM3.003 14.724h-1.754v-1.754c0-0.319-0.266-0.638-0.638-0.638s-0.585 0.266-0.585 0.638v2.392c0 0.319 0.266 0.585 0.638 0.585h2.392c0.319 0 0.638-0.266 0.638-0.638s-0.319-0.585-0.691-0.585zM15.336 12.332c-0.319 0-0.638 0.266-0.638 0.638v1.754h-1.754c-0.319 0-0.638 0.266-0.638 0.638s0.266 0.638 0.638 0.638h2.392c0.319 0 0.638-0.266 0.638-0.638v-2.392c0-0.372-0.266-0.638-0.638-0.638zM7.468 3.083v3.721c0 0.319-0.266 0.638-0.638 0.638h-3.721c-0.319 0-0.638-0.266-0.638-0.638v-3.721c0-0.319 0.266-0.638 0.638-0.638h3.721c0.372 0 0.638 0.266 0.638 0.638zM6.193 3.668h-2.498v2.498h2.498v-2.498zM13.209 7.442h-3.721c-0.319 0-0.638-0.266-0.638-0.638v-3.721c0-0.319 0.266-0.638 0.638-0.638h3.721c0.319 0 0.638 0.266 0.638 0.638v3.721c0 0.372-0.266 0.638-0.638 0.638zM12.571 3.668h-2.445v2.498h2.498v-2.498zM7.468 9.462v3.721c0 0.319-0.266 0.638-0.638 0.638h-3.721c-0.319 0-0.638-0.266-0.638-0.638v-3.721c0-0.319 0.266-0.638 0.638-0.638h3.721c0.372 0 0.638 0.266 0.638 0.638zM6.193 10.1h-2.498v2.498h2.498v-2.498zM12.412 13.023h-2.126c-0.319 0-0.638-0.266-0.638-0.638v-2.126c0-0.319 0.266-0.638 0.638-0.638h2.126c0.319 0 0.638 0.266 0.638 0.638v2.126c0 0.372-0.266 0.638-0.638 0.638zM11.774 10.897h-0.904v0.904h0.904v-0.904z"></path>
</svg>
