<!-- Generated by IcoMoon.io -->
<svg version="1.1" xmlns="http://www.w3.org/2000/svg" width="16" height="16" viewBox="0 0 16 16">
<title>logo-ecoreleve-color</title>
<path fill="#4caf50" d="M0.894 16c-0.214 0-0.48-0.053-0.586-0.214-0.214-0.213-0.32-0.533-0.214-0.853 0 0 3.359-10.186 3.359-10.241 0.32-1.067 0.853-1.973 1.6-2.72 1.228-1.278 2.828-1.972 4.534-1.972s3.253 0.694 4.48 1.92c2.506 2.506 2.506 6.559 0 9.014-0.747 0.747-1.759 1.28-2.72 1.6 0 0 0 0-0.053 0l-10.080 3.466c-0.106 0-0.267 0-0.32 0v0 0zM2.281 13.867l8.533-2.88c0.053 0 0.053-0.053 0.159-0.053 0.747-0.214 1.547-0.586 2.133-1.227 1.814-1.814 1.814-4.8 0-6.614-0.906-0.906-2.080-1.386-3.359-1.386-1.227-0.053-2.453 0.427-3.359 1.333-0.586 0.586-1.014 1.28-1.227 2.133l-2.88 8.694zM11.188 6.4c0 0.8-0.641 1.441-1.441 1.441s-1.441-0.641-1.441-1.441 0.641-1.441 1.441-1.441 1.441 0.641 1.441 1.441z"></path>
</svg>
