<!-- Generated by IcoMoon.io -->
<svg version="1.1" xmlns="http://www.w3.org/2000/svg" width="16" height="16" viewBox="0 0 16 16">
<title>machine-stockage</title>
<path fill="#444" d="M9.076 12.457v0 0z"></path>
<path fill="#444" d="M11.261 9.228v0 0z"></path>
<path fill="#444" d="M9.060 5.946v0 0z"></path>
<path fill="#444" d="M14.447 4.065h-1.225v-0.368h0.155c1.021 0 1.849-0.828 1.849-1.849s-0.828-1.849-1.849-1.849v0h-5.179c-1.021 0-1.849 0.828-1.849 1.849s0.828 1.849 1.849 1.849v0h0.171v0.368h-1.199c-0.353 0-0.639 0.286-0.639 0.639v0 10.656c0 0.353 0.286 0.639 0.639 0.639v0h7.278c0 0 0 0 0 0 0.354 0 0.642-0.286 0.645-0.639v-10.656c-0.003-0.354-0.29-0.639-0.645-0.639 0 0-0 0-0 0v0zM6.775 1.859c0-0.786 0.637-1.423 1.423-1.423v0h5.179c0.786 0 1.423 0.637 1.423 1.423s-0.637 1.423-1.423 1.423v0h-5.179c-0.784-0.003-1.42-0.638-1.423-1.422v-0zM8.533 3.698h4.566v0.368h-4.566zM7.169 4.492h7.278c0.002-0 0.003-0 0.005-0 0.118 0 0.213 0.095 0.213 0.213 0 0 0 0 0 0v0 2.872h-1.407c0.366-0.103 0.631-0.433 0.634-0.825v-0.038c0-0.474-0.352-1.204-0.821-1.204s-0.81 0.73-0.81 1.204v0 0.037c0.003 0.393 0.268 0.723 0.628 0.824l0.006 0.001h-1.854c0.367-0.102 0.633-0.433 0.634-0.826v-0.037c0-0.474-0.352-1.204-0.821-1.204s-0.826 0.73-0.826 1.204v0 0.037c0.001 0.393 0.267 0.724 0.628 0.824l0.006 0.001h-1.796c0.365-0.104 0.628-0.434 0.629-0.826v-0.037c-0.015-0.321-0.123-0.615-0.296-0.857l0.003 0.005c-0.113-0.184-0.307-0.31-0.53-0.33l-0.003-0c-0.469 0-0.826 0.73-0.826 1.204v0 0.037c0.003 0.393 0.268 0.723 0.628 0.824l0.006 0.001h-1.545v-2.893c0-0 0-0.001 0-0.001 0-0.118 0.095-0.213 0.213-0.213 0.008 0 0.015 0 0.022 0.001l-0.001-0zM13.696 13.283c0 0.359-0.291 0.65-0.65 0.65s-0.65-0.291-0.65-0.65v0-0.059c0-0.432 0.325-1.028 0.65-1.028v0c0.32 0 0.645 0.597 0.645 1.028v0c0.003 0.016 0.005 0.034 0.005 0.053 0 0.002-0 0.004-0 0.006v-0zM13.871 13.256c0.001-0.005 0.002-0.010 0.002-0.016s-0.001-0.011-0.002-0.016l0 0c0-0.474-0.352-1.204-0.821-1.204s-0.826 0.73-0.826 1.204v0 0.032c0 0 0 0 0 0 0 0.33 0.186 0.616 0.459 0.76l0.005 0.002h-1.449c0.275-0.148 0.458-0.434 0.458-0.762v-0.032c0-0.474-0.357-1.204-0.826-1.204s-0.821 0.73-0.821 1.204v0 0.032c0 0.328 0.184 0.614 0.454 0.76l0.005 0.002h-1.444c0.275-0.148 0.458-0.434 0.458-0.762v-0.032c-0.009-0.325-0.118-0.624-0.296-0.867l0.003 0.004c-0.11-0.188-0.305-0.316-0.531-0.33l-0.002-0c-0.469 0-0.826 0.73-0.826 1.204v0 0.032c0 0 0 0 0 0 0 0.33 0.186 0.616 0.459 0.76l0.005 0.002h-1.401v-3.090h7.731v3.080h-1.257c0.272-0.148 0.453-0.431 0.453-0.756 0-0.002 0-0.004-0-0.006v0zM11.517 13.283c0 0.359-0.291 0.65-0.65 0.65s-0.65-0.291-0.65-0.65v0c-0.001-0.009-0.002-0.019-0.002-0.029s0.001-0.021 0.002-0.030l-0 0.001c0-0.432 0.325-1.028 0.645-1.028v0c0.32 0 0.65 0.597 0.65 1.028v0zM9.343 13.283c0 0.359-0.291 0.65-0.65 0.65s-0.65-0.291-0.65-0.65v0-0.059c0-0.432 0.33-1.028 0.65-1.028v0c0.165 0.025 0.303 0.123 0.382 0.259l0.001 0.003c0.154 0.214 0.25 0.478 0.261 0.765l0 0.003c0.003 0.016 0.005 0.034 0.005 0.053 0 0.002-0 0.004-0 0.006v-0zM9.343 10.049c-0.031 0.336-0.312 0.596-0.653 0.596s-0.621-0.261-0.652-0.594l-0-0.003s0-0.043 0-0.059c0-0.432 0.325-1.034 0.65-1.034v0c0.32 0 0.65 0.597 0.645 1.028v0s0.005 0.043 0.005 0.064zM11.532 10.049c0 0.359-0.291 0.65-0.65 0.65s-0.65-0.291-0.65-0.65v0-0.059c0-0.432 0.325-1.034 0.65-1.034v0c0.165 0.025 0.303 0.123 0.382 0.259l0.001 0.003c0.155 0.213 0.251 0.478 0.261 0.765l0 0.002s0 0.048 0 0.069zM13.706 10.049c0 0.359-0.291 0.65-0.65 0.65s-0.65-0.291-0.65-0.65v0-0.059c0-0.432 0.33-1.034 0.65-1.034v0c0.32 0 0.645 0.597 0.645 1.028v0c0.001 0.010 0.002 0.021 0.002 0.032s-0.001 0.022-0.002 0.033l0-0.001zM13.392 10.795c0.28-0.145 0.469-0.433 0.469-0.765 0-0.003-0-0.006-0-0.008v0-0.032c0-0.474-0.357-1.209-0.826-1.209s-0.826 0.735-0.826 1.209v0 0.037c0.001 0.339 0.199 0.632 0.485 0.77l0.005 0.002h-1.502c0.291-0.141 0.489-0.433 0.49-0.772v-0.032c-0.016-0.326-0.123-0.625-0.297-0.874l0.004 0.005c-0.11-0.189-0.305-0.318-0.531-0.336l-0.002-0c-0.469 0-0.821 0.735-0.821 1.209v0 0.037c0 0 0 0.001 0 0.001 0 0.339 0.198 0.632 0.485 0.769l0.005 0.002h-1.513c0.292-0.139 0.49-0.432 0.49-0.772 0-0 0-0.001 0-0.001v0-0.032c0-0.474-0.352-1.209-0.821-1.209s-0.826 0.735-0.826 1.209v0 0.037c0 0 0 0.001 0 0.001 0 0.339 0.198 0.632 0.485 0.769l0.005 0.002h-1.417v-3.101h7.731v3.080zM9.332 6.777c0 0.359-0.291 0.65-0.65 0.65s-0.65-0.291-0.65-0.65v0-0.064c0-0.432 0.33-1.028 0.65-1.028v0c0.166 0.022 0.306 0.118 0.388 0.253l0.001 0.002c0.15 0.215 0.244 0.479 0.256 0.764l0 0.003c0.001 0.010 0.002 0.022 0.002 0.035s-0.001 0.024-0.002 0.036l0-0.001zM11.511 6.777c0 0.359-0.291 0.65-0.65 0.65s-0.65-0.291-0.65-0.65v0-0.064c0-0.432 0.325-1.028 0.65-1.028v0c0.32 0 0.645 0.591 0.645 1.023v0s0 0.048 0 0.069zM13.728 6.777c0 0.359-0.291 0.65-0.65 0.65s-0.65-0.291-0.65-0.65v0-0.064c0-0.432 0.33-1.028 0.65-1.028v0c0.32 0 0.645 0.591 0.645 1.023v0c0.001 0.010 0.002 0.022 0.002 0.035s-0.001 0.024-0.002 0.036l0-0.001zM14.447 15.558h-7.278c-0.118 0-0.213-0.095-0.213-0.213v0-1.188h7.71v1.188c0 0 0 0 0 0 0 0.118-0.095 0.213-0.213 0.213-0.002 0-0.004-0-0.006-0h0z"></path>
<path fill="#444" d="M9.167 2.803c0.001 0 0.003 0 0.005 0 0.132 0 0.24-0.107 0.24-0.24 0-0.102-0.063-0.188-0.152-0.223l-0.002-0.001v-0.314h-0.192v0.314c-0.086 0.040-0.146 0.125-0.149 0.223l-0 0c0 0 0 0 0 0 0 0.132 0.107 0.24 0.24 0.24 0.004 0 0.007-0 0.011-0l-0.001 0z"></path>
<path fill="#444" d="M9.332 1.146h0.149v0.128h-0.149v-0.128z"></path>
<path fill="#444" d="M9.332 1.316h0.149v0.128h-0.149v-0.128z"></path>
<path fill="#444" d="M9.481 2.211v-0.533h-0.144v0.597l0.048 0.043c0.066 0.061 0.106 0.148 0.107 0.245v0c0.002 0.013 0.003 0.027 0.003 0.042 0 0.182-0.148 0.33-0.33 0.33s-0.33-0.148-0.33-0.33c0-0.015 0.001-0.029 0.003-0.044l-0 0.002c0-0.098 0.043-0.185 0.111-0.245l0-0 0.053-0.048v-1.241c0.015-0.080 0.084-0.14 0.168-0.14s0.153 0.060 0.168 0.139l0 0.001v0.069h0.149v-0.069c0-0.177-0.143-0.32-0.32-0.32v0c-0 0-0 0-0 0-0.174 0-0.314 0.141-0.314 0.314 0 0.002 0 0.004 0 0.006v-0 1.177c-0.098 0.086-0.16 0.212-0.16 0.352v0c0 0.265 0.215 0.48 0.48 0.48s0.48-0.215 0.48-0.48v0c-0.008-0.139-0.072-0.261-0.17-0.346l-0.001-0.001z"></path>
<path fill="#444" d="M9.332 1.492h0.149v0.128h-0.149v-0.128z"></path>
<path fill="#444" d="M12.795 1.854c-0.080-0.133-0.176-0.266-0.266-0.389l-0.107-0.133c-0.1-0.106-0.177-0.234-0.222-0.377l-0.002-0.007c-0.014-0.043-0.054-0.074-0.101-0.075h-0c-0.042 0.011-0.074 0.043-0.085 0.084l-0 0.001c-0.030 0.105-0.080 0.196-0.145 0.273l0.001-0.001-0.139 0.181c-0.085 0.117-0.176 0.234-0.256 0.357v0c-0.086 0.12-0.137 0.27-0.139 0.431v0c-0.003 0.021-0.004 0.045-0.004 0.069s0.002 0.048 0.004 0.072l-0-0.003c0.066 0.372 0.386 0.65 0.772 0.65 0 0 0.001 0 0.001 0h0.069c0.394-0.044 0.698-0.376 0.698-0.779 0-0.002 0-0.003-0-0.005v0-0.043c0-0.006 0-0.012 0-0.019 0-0.107-0.030-0.207-0.082-0.293l0.001 0.003zM12.753 2.211c0 0.001 0 0.002 0 0.003 0 0.328-0.249 0.597-0.567 0.631l-0.003 0h-0.059c-0.313-0.001-0.573-0.23-0.623-0.529l-0.001-0.004c-0.001-0.018-0.002-0.040-0.002-0.061s0.001-0.043 0.002-0.064l-0 0.003c0.002-0.126 0.042-0.242 0.108-0.338l-0.001 0.002 0.256-0.352 0.128-0.171c0.047-0.057 0.090-0.122 0.125-0.191l0.003-0.006c0.061 0.113 0.13 0.211 0.209 0.3l-0.001-0.001c0.034 0.048 0.066 0.102 0.093 0.159l0.003 0.006c0.091 0.123 0.181 0.25 0.266 0.384 0.040 0.064 0.064 0.141 0.064 0.225 0 0.002-0 0.003-0 0.005v-0z"></path>
<path fill="#444" d="M12.753 2.206v0 0 0z"></path>
<path fill="#444" d="M12.486 2.206v0c-0.032 0.079-0.108 0.133-0.197 0.133h-0c-0.001 0-0.002 0-0.003 0-0.088 0-0.163-0.055-0.193-0.132l-0-0.001c-0.031 0.079-0.106 0.133-0.194 0.133-0.001 0-0.002-0-0.003-0h0c-0.089-0-0.165-0.055-0.197-0.132l-0.001-0.001c-0.016 0.045-0.046 0.082-0.084 0.106l-0.001 0.001c0.056 0.231 0.257 0.402 0.5 0.41l0.001 0h0.053c0.213-0.033 0.383-0.188 0.436-0.391l0.001-0.004c-0.056-0.022-0.098-0.066-0.117-0.121l-0-0.001z"></path>
<path fill="#444" d="M3.082 4.603v0z"></path>
<path fill="#444" d="M4.963 6.292v0 0 0z"></path>
<path fill="#444" d="M2.768 4.678v0z"></path>
<path fill="#444" d="M4.984 6.287v0h-0.091c-0.115-0.765-0.681-1.371-1.415-1.543l-0.013-0.002c-0.117-0.053-0.181-0.117-0.197-0.186v0c0.001-0.094 0.039-0.179 0.101-0.24l0-0c0.425-0.373 0.693-0.918 0.693-1.525 0-0.002 0-0.003 0-0.005v0c0-0.002 0-0.004 0-0.007 0-0.128-0.012-0.252-0.034-0.373l0.002 0.013h0.117c0.040-0.008 0.069-0.042 0.069-0.084 0-0.001 0-0.001-0-0.002v0c0-0.050-0.041-0.091-0.091-0.091v0l-3.271 0.682c-0.044 0.008-0.078 0.045-0.080 0.090v0c0 0.050 0.041 0.091 0.091 0.091v0h0.133c0.188 0.68 0.7 1.209 1.355 1.419l0.015 0.004c0.048 0 0.181 0.091 0.202 0.192v0.027c0 0.001 0 0.002 0 0.003 0 0.090-0.039 0.171-0.101 0.226l-0 0c-0.439 0.344-0.719 0.875-0.719 1.471 0 0.186 0.027 0.365 0.078 0.535l-0.003-0.013h-0.112c-0.040 0.010-0.069 0.046-0.069 0.088 0 0.001 0 0.002 0 0.003v-0c0 0.050 0.041 0.091 0.091 0.091v0 0l3.234-0.714c0.042-0.005 0.075-0.041 0.075-0.085 0-0 0-0 0-0.001v0s0 0 0 0c-0.007-0.031-0.029-0.055-0.058-0.064l-0.001-0zM4.297 6.426c-0.006-0.013-0.015-0.024-0.026-0.032l-0-0-1.066-0.634h-0.053c-0 0-0.001 0-0.001 0-0.031 0-0.059 0.017-0.074 0.042l-0 0-0.266 0.4c-0.004 0.005-0.006 0.012-0.006 0.019s0.002 0.013 0.006 0.019l-0-0-0.378 0.57c-0.002 0.006-0.002 0.012-0.002 0.019s0.001 0.013 0.002 0.019l-0-0.001-0.405 0.080c-0.047-0.147-0.075-0.317-0.075-0.493 0-0.535 0.253-1.012 0.646-1.316l0.004-0.003c0.098-0.088 0.159-0.215 0.16-0.357v-0c0.001-0.010 0.002-0.022 0.002-0.035s-0.001-0.024-0.002-0.036l0 0.001c-0.053-0.15-0.166-0.268-0.311-0.324l-0.004-0.001c-0.619-0.191-1.092-0.679-1.26-1.292l-0.003-0.013 2.664-0.581c0.020 0.096 0.032 0.206 0.032 0.318 0 0.004-0 0.008-0 0.013v-0.001c-0.010 0.546-0.257 1.032-0.642 1.362l-0.003 0.002c-0.095 0.096-0.155 0.229-0.155 0.375 0 0.001 0 0.002 0 0.003v-0s0 0.032 0 0.048c0.043 0.156 0.161 0.277 0.311 0.324l0.003 0.001c0.678 0.155 1.192 0.71 1.283 1.398l0.001 0.008z"></path>
<path fill="#444" d="M5.070 6.356v0 0 0z"></path>
<path fill="#444" d="M1.761 7.177v0 0 0z"></path>
<path fill="#444" d="M4.084 2.216v0 0 0z"></path>
<path fill="#444" d="M3.306 3.735v0 0 0z"></path>
<path fill="#444" d="M3.215 3.698v0 0 0z"></path>
<path fill="#444" d="M2.853 4.401c0.020-0.006 0.037-0.020 0.048-0.037l0-0 0.405-0.533c0.010-0.015 0.016-0.033 0.016-0.053s-0.006-0.038-0.016-0.054l0 0c-0.017-0.023-0.043-0.037-0.073-0.037-0 0-0.001 0-0.001 0h-0.027l-0.996 0.213c-0.040 0.012-0.069 0.049-0.069 0.092 0 0.001 0 0.003 0 0.004v-0c0.003 0.035 0.021 0.066 0.048 0.085l0 0 0.591 0.298h0.037z"></path>
<path fill="#444" d="M2.848 4.401v0 0 0z"></path>
<path fill="#444" d="M2.912 4.529c-0.004 0.005-0.006 0.012-0.006 0.019s0.002 0.013 0.006 0.019l-0-0c0.005 0.005 0.011 0.008 0.019 0.008s0.014-0.003 0.019-0.008v0c0.004-0.005 0.006-0.012 0.006-0.019s-0.002-0.013-0.006-0.019l0 0c-0.005-0.003-0.012-0.004-0.019-0.004s-0.013 0.002-0.019 0.004l0-0z"></path>
<path fill="#444" d="M2.821 4.486c-0.011 0.005-0.019 0.016-0.019 0.029s0.008 0.024 0.019 0.029l0 0s0.027 0 0-0.037 0.021-0.027 0-0.021z"></path>
<path fill="#444" d="M3.082 5.68c-0.015 0.003-0.026 0.016-0.026 0.031 0 0.018 0.014 0.032 0.032 0.032s0.032-0.014 0.032-0.032c0-0.002-0-0.003-0-0.005l0 0s-0.021-0.032-0.037-0.027z"></path>
<path fill="#444" d="M3.141 5.568c-0.005 0.005-0.008 0.011-0.008 0.019s0.003 0.014 0.008 0.019v0c0.005 0.004 0.012 0.006 0.019 0.006s0.013-0.002 0.019-0.006l-0 0c0.003-0.005 0.004-0.012 0.004-0.019s-0.002-0.013-0.004-0.019l0 0c-0.005-0.004-0.012-0.006-0.019-0.006s-0.013 0.002-0.019 0.006l0-0z"></path>
<path fill="#444" d="M3.141 5.371s0.032 0 0-0.037c-0.005-0.004-0.012-0.006-0.019-0.006s-0.013 0.002-0.019 0.006l0-0s-0.027 0-0.027 0.037c0 0.018 0.014 0.032 0.032 0.032s0.032-0.014 0.032-0.032v0z"></path>
<path fill="#444" d="M3.013 5.078c-0.004 0.005-0.006 0.012-0.006 0.019s0.002 0.013 0.006 0.019l-0-0c-0 0.001-0 0.001-0 0.002 0 0.015 0.012 0.027 0.027 0.027 0.004 0 0.008-0.001 0.011-0.002l-0 0c0.004-0.005 0.006-0.012 0.006-0.019s-0.002-0.013-0.006-0.019l0 0c-0.006-0.015-0.020-0.026-0.037-0.027h-0z"></path>
<path fill="#444" d="M3.205 5.653c-0.018 0-0.032 0.014-0.032 0.032s0.014 0.032 0.032 0.032v0s0.032 0 0.027-0.037-0.027-0.032-0.027-0.027z"></path>
<path fill="#444" d="M3.642 5.919s-0.032 0-0.027 0.037c0.005 0.004 0.012 0.006 0.019 0.006s0.013-0.002 0.019-0.006l-0 0s0 0 0-0.037c-0.002-0-0.003-0-0.005-0s-0.004 0-0.006 0l0-0z"></path>
</svg>
