<!-- Generated by IcoMoon.io -->
<svg version="1.1" xmlns="http://www.w3.org/2000/svg" width="16" height="16" viewBox="0 0 16 16">
<title>main_birds</title>
<path fill="#444" d="M13.653 6.613h-4.32c-0.213 0-0.373-0.213-0.373-0.373 0-0.213 0.213-0.373 0.373-0.373h4.32c0.213 0 0.373 0.213 0.373 0.373 0.053 0.16-0.16 0.373-0.373 0.373z"></path>
<path fill="#444" d="M13.653 8.373h-4.32c-0.213 0-0.373-0.213-0.373-0.373 0-0.213 0.213-0.373 0.373-0.373h4.32c0.213 0 0.373 0.213 0.373 0.373 0.053 0.213-0.16 0.373-0.373 0.373z"></path>
<path fill="#444" d="M13.653 10.133h-4.32c-0.213 0-0.373-0.213-0.373-0.373s0.213-0.427 0.373-0.427h4.32c0.213 0 0.373 0.213 0.373 0.427 0.053 0.16-0.16 0.373-0.373 0.373z"></path>
<path fill="#444" d="M14.933 13.813h-13.867c-0.8 0-1.067-0.587-1.067-1.067v-9.493c0-0.8 0.587-1.067 1.067-1.067h13.867c0.8 0 1.067 0.587 1.067 1.067v9.493c0 0.8-0.693 1.067-1.067 1.067zM1.067 3.040c-0.213 0-0.213 0.16-0.213 0.213v9.44c0 0.213 0.107 0.213 0.213 0.213h13.867c0.213 0 0.213-0.107 0.213-0.213v-9.44c0-0.213-0.16-0.213-0.213-0.213h-13.867z"></path>
<path fill="#444" d="M6.88 7.093c0-0.107 0.16-0.16 0.213-0.16 0.107 0 0.16 0.16 0.16 0.267s-0.16 0.16-0.267 0.16c-0.053-0.053-0.16-0.16-0.107-0.267v0zM8.64 7.040c0-0.053-0.053-0.107-0.107-0.16 0-0.053-0.053-0.107-0.053-0.16s0-0.053-0.053-0.107c-0.16-0.32-0.427-0.533-0.8-0.64-0.32-0.107-0.693 0-1.013 0.213-0.107 0.107-0.213 0.16-0.32 0.32l-0.213 0.213-0.053-0.16c0-0.053 0-0.053-0.053-0.107-0.267-0.533-0.587-0.853-1.067-0.96-0.32-0.107-0.64-0.16-1.013-0.213l-0.64-0.16c-0.053 0.32-0.053 0.533-0.107 0.693-0.053 0.32-0.16 0.64-0.213 1.013-0.107 0.427-0.16 0.853-0.053 1.333 0 0.053 0 0.107 0.053 0.16l0.053 0.16-1.76 0.48c0 0-0.107 0-0.053 0.107 0 0 0.8 1.6 0.853 1.707 0 0 0.053 0 0.053 0v0h0.053l1.547-1.12 0.053 0.053c0.267 0.213 0.64 0.373 1.013 0.48v0c0.107 0 0.213 0.053 0.32 0.053 1.333 0.213 2.507-0.533 2.827-1.867 0.053-0.267 0.107-0.48 0.16-0.747s0.267-0.48 0.587-0.587v0zM3.467 5.867c0-0.053 0.107-0.107 0.16-0.107 0.16 0 1.227 0.32 1.387 0.373 0.373 0.213 0.533 0.533 0.587 0.747 0.107 0.32 0 0.747-0.16 1.013-0.213 0.32-0.64 0.48-1.12 0.427-0.053 0-0.107 0-0.16 0-0.427-0.107-0.693-0.373-0.853-0.853-0.053-0.64 0.053-1.173 0.16-1.6v0zM2.133 10.187l-0.48-1.013 1.387-0.373v0.053c0.053 0.16 0.16 0.267 0.213 0.373l0.053 0.053-1.173 0.907zM8.053 6.987c-0.32 0.107-0.373 0.32-0.427 0.64v0.107c-0.053 0.213-0.053 0.427-0.16 0.64-0.32 0.853-0.907 1.387-1.867 1.493-0.267 0-0.533 0-0.8-0.053-0.587-0.16-1.067-0.587-1.333-1.173 0-0.053-0.053-0.16-0.107-0.213l-0.16-0.373 0.213 0.16c0.053 0.053 0.16 0.107 0.213 0.16 0.16 0.107 0.32 0.16 0.427 0.267 0.48 0.213 0.907 0.213 1.333-0.107 0.267-0.213 0.533-0.48 0.693-0.8v0l0.107-0.16c0.053-0.16 0.16-0.32 0.267-0.48v0c0.16-0.267 0.32-0.427 0.64-0.533 0.373-0.16 0.853 0 1.067 0.32l0.053 0.107h-0.16z"></path>
</svg>
