<!-- Generated by IcoMoon.io -->
<svg version="1.1" xmlns="http://www.w3.org/2000/svg" width="16" height="16" viewBox="0 0 16 16">
<title>marker</title>
<path fill="#444" d="M12.341 7.91c-0.267 0-0.534 0.267-0.534 0.534v5.289h-4.060c-0.267 0-0.534 0.267-0.534 0.534s0.267 0.534 0.534 0.534h4.594c0.267 0 0.534-0.267 0.534-0.534v-5.876c0-0.214-0.267-0.481-0.534-0.481v0zM15.76 1.339c-0.374-0.374-0.962-0.427-1.389 0l-7.159 7.479c-0.267 0.267-0.267 0.641 0 0.908 0.16 0.16 0.267 0.214 0.481 0.214 0.16 0 0.374-0.053 0.427-0.214l7.639-7.052c0.321-0.321 0.321-0.962 0-1.336v0zM3.579 10.688c-0.214 0.214-0.267 0.534-0.427 0.962-0.267 1.122-0.694 1.977-1.977 2.083h-0.16v-8.868h7.586c0.267 0 0.534-0.267 0.534-0.534s-0.267-0.534-0.534-0.534h-8.067c-0.267 0-0.534 0.267-0.534 0.534v10.043c0 0.267 0.214 0.534 0.481 0.534v0c0 0 0 0 0.053 0v0 0c0.321 0 0.641 0.053 0.962 0.053s0.641 0 0.908-0.053c2.671-0.267 3.846-1.442 4.060-1.656 0.374-0.374 0.481-0.855 0.481-1.389 0-0.481-0.267-0.962-0.641-1.336-0.748-0.641-2.030-0.588-2.725 0.16v0z"></path>
</svg>
