<!-- Generated by IcoMoon.io -->
<svg version="1.1" xmlns="http://www.w3.org/2000/svg" width="16" height="16" viewBox="0 0 16 16">
<title>mid-egg</title>
<path fill="#444" d="M8 0c-3.147 0-5.44 5.44-5.44 9.12 0 3.733 2.4 6.88 5.44 6.88s5.44-3.040 5.44-6.88c0-3.627-2.293-9.12-5.44-9.12v0zM8 15.093c-2.507 0-4.587-2.667-4.587-6.027 0-3.52 2.24-8.267 4.587-8.267s4.587 4.747 4.587 8.267c0 3.36-2.080 6.027-4.587 6.027zM8.16 12.053c-0.48 0-1.12-0.16-1.76-1.013-0.373-0.48-0.213-0.907-0.107-1.067 0.16-0.373 0.587-0.587 1.013-0.587 0.32 0 0.587 0.16 0.747 0.373 0 0 0.053 0.053 0.107 0.053 0.213 0 0.373-0.16 0.373-0.213 0-0.107-0.213-0.533-0.427-0.96-0.267 0.107-0.747 0.213-1.173 0.213-0.8 0-1.333-0.32-1.493-0.96-0.373-1.28 0.533-2.080 1.387-2.4 0.107-0.053 0.427-0.107 0.747-0.107 0.533 0 1.547 0.107 2.293 0.907 0.64 0.693 0.96 1.707 0.853 3.040 0 1.173-1.173 2.72-2.56 2.72v0zM7.36 9.92c-0.16 0-0.373 0.107-0.48 0.267-0.053 0.107-0.053 0.267 0.107 0.427 0.373 0.48 0.747 0.747 1.227 0.747 0.907 0 1.92-1.067 1.973-2.187 0.053-1.173-0.16-2.027-0.693-2.56-0.533-0.587-1.28-0.693-1.813-0.693-0.267 0-0.48 0.053-0.533 0.053-0.373 0.16-1.28 0.533-1.013 1.6 0.053 0.213 0.213 0.48 0.853 0.48 0.587 0 1.173-0.213 1.227-0.267l0.267-0.107 0.16 0.213c0.32 0.533 0.747 1.28 0.64 1.653-0.107 0.427-0.587 0.747-1.013 0.747v0c-0.267 0-0.48-0.107-0.64-0.32-0.16 0-0.213-0.053-0.267-0.053v0zM7.36 6.72c-0.213 0-0.373 0.16-0.373 0.373s0.16 0.373 0.373 0.373c0.213 0 0.373-0.16 0.373-0.373 0.053-0.213-0.16-0.373-0.373-0.373z"></path>
</svg>
