<!-- Generated by IcoMoon.io -->
<svg version="1.1" xmlns="http://www.w3.org/2000/svg" width="16" height="16" viewBox="0 0 16 16">
<title>onglet</title>
<path fill="#444" d="M12.354 13.821c0 0.159-0.159 0.319-0.319 0.319h-9.834c-0.159 0-0.319-0.159-0.319-0.319v-9.887c0-0.159 0.159-0.319 0.319-0.319h3.668v-1.807h-3.668c-1.169 0-2.179 0.957-2.179 2.179v9.834c0 1.169 0.957 2.179 2.179 2.179h9.834c1.169 0 2.179-0.957 2.179-2.179v-3.721h-1.86v3.721z"></path>
<path fill="#444" d="M12.407 3.508v-3.508h-1.86v3.508h-3.508v1.86h3.508v3.508h1.86v-3.508h3.508v-1.86h-3.508z"></path>
</svg>
