<!-- Generated by IcoMoon.io -->
<svg version="1.1" xmlns="http://www.w3.org/2000/svg" width="16" height="16" viewBox="0 0 16 16">
<title>pageup</title>
<path fill="#444" d="M13.863 0h-11.731c-1.175 0-2.132 0.96-2.132 2.135v11.731c0 1.175 0.96 2.135 2.135 2.135h11.731c1.175 0 2.135-0.96 2.135-2.135v-11.731c-0.002-1.175-0.962-2.135-2.137-2.135zM14.925 13.865c0 0.587-0.485 1.062-1.062 1.062l-11.731 0.008c-0.587 0-1.062-0.485-1.062-1.062v-11.738c0-0.587 0.485-1.062 1.062-1.062h11.731c0.587 0 1.062 0.485 1.062 1.062v11.731z"></path>
<path fill="#444" d="M10.318 9.551c0.255 0 0.462-0.207 0.462-0.462s-0.207-0.462-0.462-0.462h-2.065v-3.572l1.702 1.692c0.087 0.087 0.207 0.137 0.327 0.137s0.242-0.052 0.327-0.137c0.19-0.182 0.19-0.467 0-0.657l-2.497-2.497c-0.182-0.19-0.467-0.19-0.657 0l-2.492 2.5c-0.095 0.087-0.13 0.207-0.13 0.327s0.052 0.242 0.137 0.327c0.182 0.19 0.467 0.19 0.657 0l1.692-1.692v3.572h-2.052c-0.255 0-0.462 0.207-0.462 0.462s0.207 0.462 0.462 0.462h2.052v2.075h-2.052c-0.255 0-0.462 0.207-0.462 0.462s0.207 0.462 0.462 0.462h5.049c0.255 0 0.462-0.207 0.462-0.462s-0.207-0.462-0.462-0.462h-2.065v-2.075h2.065z"></path>
</svg>
