<!-- Generated by IcoMoon.io -->
<svg version="1.1" xmlns="http://www.w3.org/2000/svg" width="16" height="16" viewBox="0 0 16 16">
<title>pause</title>
<path fill="#444" d="M3.429 16c1.257 0 2.286-1.029 2.286-2.286v-11.429c0-1.257-1.029-2.286-2.286-2.286s-2.286 1.029-2.286 2.286v11.429c0 1.257 1.029 2.286 2.286 2.286zM10.286 2.286v11.429c0 1.257 1.029 2.286 2.286 2.286s2.286-1.029 2.286-2.286v-11.429c0-1.257-1.029-2.286-2.286-2.286s-2.286 1.029-2.286 2.286z"></path>
</svg>
