<!-- Generated by IcoMoon.io -->
<svg version="1.1" xmlns="http://www.w3.org/2000/svg" width="16" height="16" viewBox="0 0 16 16">
<title>post_it_printer</title>
<path fill="#444" d="M1.75 1.35v0c-0.2 0-0.4 0.15-0.4 0.4v0 12.55c0 0.2 0.2 0.4 0.4 0.4h12.5c0.25 0 0.4-0.2 0.4-0.4v-12.55c0-0.2-0.2-0.4-0.4-0.4h-12.5zM14.25 15.5h-12.5c-0.7 0-1.25-0.55-1.25-1.25v-12.5c0-0.7 0.55-1.25 1.25-1.25h12.5c0.7 0 1.25 0.55 1.25 1.25v12.55c0 0.65-0.6 1.2-1.25 1.2 0 0 0 0 0 0v0z"></path>
<path fill="#444" d="M13.2 8.25h-1.15v-1.1c0-0.3-0.25-0.5-0.5-0.5h-1.4v-0.25c-0.050-0.45-0.4-0.85-0.85-0.9h-0.25l-0.1-0.15 0.15-0.1c0.15-0.15 0.2-0.3 0.2-0.5s-0.1-0.4-0.2-0.5l-0.35-0.35c-0.15-0.15-0.3-0.2-0.5-0.2s-0.4 0.1-0.5 0.2h-0.25l-0.15-0.050v-0.25c-0.050-0.45-0.45-0.8-0.9-0.85h-0.5c-0.45 0.050-0.85 0.4-0.95 0.85v0.25l-0.15 0.050-0.15-0.15c-0.15-0.15-0.3-0.2-0.5-0.2s-0.4 0.1-0.5 0.2l-0.4 0.4c-0.15 0.15-0.2 0.3-0.2 0.5s0.1 0.4 0.2 0.5l0.15 0.15-0.050 0.15h-0.3c-0.45 0.050-0.8 0.45-0.85 0.9v0.5c0.050 0.45 0.4 0.85 0.85 0.9h0.3l0.050 0.15-0.15 0.15c-0.15 0.15-0.2 0.3-0.2 0.5s0.1 0.4 0.2 0.5l0.35 0.45c0.15 0.15 0.3 0.2 0.5 0.2s0.4-0.1 0.5-0.2l0.15-0.15 0.15 0.050c0 0.1 0 0.25 0 0.25 0.050 0.45 0.45 0.8 0.9 0.85v0.7c0 0.3 0.25 0.5 0.5 0.5v0h1.15v1.1c0 0.3 0.25 0.5 0.5 0.5v0h3.2c0.15 0 0.35-0.1 0.45-0.2v0l1.8-1.85c0.1-0.1 0.2-0.25 0.2-0.45v-2.15c0.050-0.15-0.15-0.4-0.45-0.4 0 0 0 0 0 0v0zM10 7.25h1.4v1h-2.25c0.050 0.050-0.050-0.050-0.1-0.15l-0.15-0.15 0.1-0.15h0.25c0.35-0.050 0.65-0.25 0.75-0.55v0zM5.5 9.7v-0.3c0 0 0 0 0-0.050 0-0.1 0-0.15-0.050-0.2l-0.1-0.1-0.35-0.2c-0.050 0-0.1-0.050-0.15-0.050-0.1 0-0.2 0.050-0.25 0.1l-0.2 0.2c-0.050 0.050-0.1 0.050-0.15 0.050s-0.1 0-0.15-0.050l-0.35-0.4c-0.050-0.050-0.050-0.1-0.050-0.15s0.050-0.1 0.050-0.15l0.2-0.2c0-0.050 0.050-0.1 0.050-0.2 0-0.050 0-0.1-0.050-0.15l-0.15-0.35c0-0.15-0.15-0.2-0.35-0.2h-0.35c-0.15-0.050-0.3-0.2-0.35-0.4v-0.5c0.050-0.15 0.15-0.35 0.35-0.4h0.3c0 0 0.050 0 0.050 0 0.1 0 0.15 0 0.2-0.050l0.1-0.1 0.15-0.35c0.1-0.1 0.1-0.15 0.1-0.2 0-0.1-0.050-0.2-0.1-0.25l-0.25-0.25c-0.050-0.050-0.050-0.1-0.050-0.15 0 0 0 0 0 0s0 0 0 0c0-0.050 0.050-0.1 0.050-0.15l0.35-0.4c0.050-0.050 0.1-0.050 0.15-0.050s0.1 0 0.15 0.050l0.2 0.2c0.050 0.050 0.15 0.1 0.25 0.1h0.1l0.4-0.2c0.050 0 0.1-0.050 0.1-0.1 0 0 0.050-0.050 0.050-0.1 0 0 0-0.050 0-0.050s0-0.050 0-0.050v-0.3c0.050-0.15 0.2-0.3 0.4-0.35h0.5c0.15 0.050 0.35 0.15 0.4 0.35v0.3c0 0 0 0 0 0.050 0 0.1 0.050 0.15 0.050 0.25l0.050 0.050h0.2l0.35 0.15c0.050 0 0.1 0.050 0.15 0.050 0.1 0 0.2-0.050 0.25-0.1l0.25-0.25c0.050-0.050 0.1-0.050 0.15-0.050s0.1 0 0.15 0.050l0.35 0.35c0.050 0.050 0.050 0.1 0.050 0.15s-0.050 0.1-0.050 0.15l-0.15 0.25c-0.050 0.050-0.1 0.15-0.1 0.25 0 0.050 0 0.1 0.050 0.15l0.2 0.4c0 0.050 0.050 0.1 0.1 0.15h0.55c0.15 0.050 0.3 0.2 0.35 0.4v0.55c-0.050 0.15-0.15 0.3-0.35 0.4h-0.3c0 0 0 0-0.050 0-0.1 0-0.15 0.050-0.25 0.050l-0.050 0.050v0.050l-0.2 0.35c0 0.050-0.050 0.1-0.050 0.15 0 0.1 0.050 0.2 0.1 0.25l0.2 0.2c0.050 0.050 0.050 0.1 0.050 0.15s-0.050 0.1-0.050 0.15l-0.35 0.35c-0.050 0.050-0.1 0.050-0.15 0.050s-0.1 0-0.15-0.050l-0.2-0.2c-0.050-0.050-0.15-0.1-0.25-0.1h-0.1l-0.45 0.25c-0.15 0.050-0.2 0.15-0.2 0.35v0.3c-0.050 0.15-0.2 0.3-0.4 0.35h-0.55c-0.15-0.050-0.3-0.15-0.4-0.3v0zM6.5 11.15v-0.65h-0.1c0.45-0.050 0.85-0.4 0.9-0.85v-0.25l0.2-0.1v1.75h-1v0.1zM13.050 10.95v0h-1.75v1.8h-3.15v-3c0 0 0 0 0 0 0.2 0 0.4-0.1 0.5-0.2l0.35-0.35c0.1-0.1 0.2-0.25 0.2-0.45 0 0.050 0 0.15-0.050 0.2h3.85l0.050 2z"></path>
<path fill="#444" d="M7.5 6.65c0-0.7-0.6-1.3-1.3-1.3s-1.3 0.6-1.3 1.3c0 0.7 0.6 1.3 1.3 1.3v0c0.7 0 1.3-0.6 1.3-1.3zM5.4 6.65c0-0.45 0.35-0.8 0.8-0.8s0.8 0.35 0.8 0.8c0 0.45-0.35 0.8-0.8 0.8 0 0 0 0 0 0-0.45 0-0.8-0.4-0.8-0.8v0 0z"></path>
</svg>
