<!-- Generated by IcoMoon.io -->
<svg version="1.1" xmlns="http://www.w3.org/2000/svg" width="16" height="16" viewBox="0 0 16 16">
<title>PTR</title>
<path fill="#444" d="M1.75 1.3v0c-0.2 0-0.4 0.2-0.4 0.4v0 12.55c0 0.2 0.2 0.4 0.4 0.4h12.5c0.25 0 0.4-0.2 0.4-0.4v-12.5c0 0 0 0 0 0 0-0.2-0.2-0.4-0.4-0.4 0 0 0 0 0 0l-12.5-0.050zM14.25 15.45h-12.5c-0.7 0-1.25-0.55-1.25-1.25v-12.5c0-0.65 0.55-1.2 1.25-1.2h12.5c0.7 0 1.25 0.55 1.25 1.25v12.55c0 0.65-0.6 1.2-1.25 1.15 0 0.050 0 0.050 0 0v0z"></path>
<path fill="#444" d="M7.4 7.55l-0.5-0.95h-1.9v1.4h2.1c0-0.15 0.1-0.3 0.3-0.45v0zM7.050 8.3h-1.050l-1 1.65 1.25 0.65 1.050-1.8c-0.1-0.1-0.2-0.25-0.25-0.5v0zM7.55 8.95l-0.55 0.9 0.95 1.65 1.2-0.7-1.050-1.85c-0.1 0-0.2 0.050-0.35 0.050-0.050 0-0.1 0-0.2-0.050v0zM8.35 8.8l0.55 1h1.85v-1.4h-2.15c0 0.15-0.1 0.3-0.25 0.4v0zM8.65 8.15h1.1l0.95-1.65-1.25-0.65-1.050 1.85c0.15 0.1 0.2 0.25 0.25 0.45v0zM8.2 7.5l0.55-0.95-0.9-1.65-1.2 0.7 1.050 1.8c0.050 0 0.15-0.050 0.2-0.050 0.1 0.1 0.2 0.1 0.3 0.15v0z"></path>
<path fill="#444" d="M7.9 12.1c-2.1 0-3.85-1.75-3.85-3.85 0-2.15 1.75-3.85 3.85-3.85s3.85 1.75 3.85 3.85c0 0 0 0 0 0 0 2.1-1.7 3.85-3.85 3.85 0 0 0 0 0 0v0zM12.4 8.2c0-2.5-2.050-4.55-4.55-4.55s-4.55 2.050-4.55 4.55 2.050 4.55 4.55 4.55 4.55-2 4.55-4.55v0 0z"></path>
</svg>
