<!-- Generated by IcoMoon.io -->
<svg version="1.1" xmlns="http://www.w3.org/2000/svg" width="16" height="16" viewBox="0 0 16 16">
<title>radio_off</title>
<path fill="#444" d="M8 16c-4.373 0-8-3.627-8-8s3.627-8 8-8 8 3.627 8 8-3.627 8-8 8zM8 1.547c-3.627 0-6.453 2.933-6.453 6.453s2.827 6.453 6.453 6.453 6.453-2.933 6.453-6.453-2.827-6.453-6.453-6.453v0z"></path>
</svg>
