<!-- Generated by IcoMoon.io -->
<svg version="1.1" xmlns="http://www.w3.org/2000/svg" width="16" height="16" viewBox="0 0 16 16">
<title>rangee</title>
<path fill="#444" d="M15.371 1.963h-14.741c-0.348 0-0.629 0.282-0.629 0.629v0 10.816c0 0.348 0.282 0.629 0.629 0.629v0h14.741c0.348 0 0.629-0.282 0.629-0.629v0-10.816c0-0.348-0.282-0.629-0.629-0.629v0zM15.579 2.592v3.461h-3.637v-3.675h3.429c0 0 0 0 0 0 0.115 0 0.208 0.093 0.208 0.208 0 0.002-0 0.004-0 0.006v-0zM7.952 13.621v-3.664h3.883v3.664zM4.112 13.621v-3.664h3.733v3.664zM4.112 6.155h3.733v3.691h-3.733zM4.005 9.845h-3.584v-3.685h3.584zM7.851 6.048h-3.733v-3.669h3.733zM7.952 2.373h3.883v3.675h-3.883zM7.952 9.84v-3.68h3.883v3.691zM11.941 6.149h3.637v3.691h-3.637zM0.629 2.379h3.376v3.675h-3.584v-3.461c-0-0.002-0-0.003-0-0.005 0-0.115 0.093-0.208 0.208-0.208 0 0 0 0 0 0v0zM0.421 13.408v-3.451h3.584v3.664h-3.376c-0 0-0 0-0 0-0.115 0-0.208-0.093-0.208-0.208 0-0.002 0-0.004 0-0.006v0zM15.355 13.621h-3.413v-3.664h3.637v3.451c0 0.002 0 0.003 0 0.005 0 0.115-0.093 0.208-0.208 0.208-0 0-0 0-0 0v0z"></path>
<path fill="#444" d="M13.739 10.437c-0.352 0.041-0.644 0.263-0.782 0.57l-0.002 0.006c-0.179 0.289-0.289 0.637-0.299 1.011l-0 0.003c-0 0.003-0 0.007-0 0.010 0 0.311 0.12 0.595 0.315 0.807l-0.001-0.001c0.188 0.21 0.46 0.341 0.763 0.341 0.002 0 0.003 0 0.005-0h-0c0.001 0 0.002 0 0.003 0 0.306 0 0.581-0.134 0.77-0.346l0.001-0.001c0.194-0.213 0.314-0.498 0.315-0.81v-0c0-0.635-0.464-1.589-1.088-1.589zM14.539 12.037v0c0 0 0 0.001 0 0.001 0 0.24-0.091 0.459-0.241 0.624l0.001-0.001c-0.133 0.147-0.321 0.241-0.532 0.251l-0.002 0c-0.001 0-0.001 0-0.002 0-0.222 0-0.421-0.097-0.557-0.25l-0.001-0.001c-0.146-0.161-0.235-0.375-0.235-0.611 0-0.003 0-0.006 0-0.008v0c0.014-0.317 0.108-0.609 0.261-0.861l-0.005 0.008c0.16-0.277 0.363-0.437 0.533-0.437v0c0.384-0.032 0.789 0.72 0.779 1.264z"></path>
<path fill="#444" d="M9.888 13.184v0 0 0z"></path>
<path fill="#444" d="M10.667 11.008c-0.144-0.309-0.434-0.529-0.779-0.57l-0.005-0c-0.351 0.043-0.642 0.265-0.781 0.57l-0.002 0.006c-0.174 0.29-0.283 0.638-0.299 1.009l-0 0.004c-0 0.012-0.001 0.025-0.001 0.039 0 0.601 0.471 1.092 1.065 1.124l0.003 0c0.001 0 0.002 0 0.003 0 0.316 0 0.6-0.138 0.796-0.356l0.001-0.001c0.192-0.214 0.309-0.498 0.309-0.81 0-0 0-0 0-0v0c-0.012-0.377-0.126-0.725-0.314-1.022l0.005 0.008zM10.693 12.021c0 0 0 0.001 0 0.001 0 0.24-0.091 0.459-0.241 0.624l0.001-0.001c-0.139 0.154-0.338 0.252-0.559 0.256l-0.001 0c-0.459-0.011-0.828-0.387-0.828-0.848 0-0.013 0-0.026 0.001-0.039l-0 0.002c0.014-0.317 0.108-0.609 0.261-0.861l-0.005 0.008c0.165-0.277 0.363-0.432 0.533-0.437 0.239 0.055 0.432 0.215 0.531 0.427l0.002 0.005c0.156 0.243 0.256 0.534 0.277 0.848l0 0.006z"></path>
<path fill="#444" d="M6.859 11.013c-0.142-0.311-0.433-0.531-0.78-0.57l-0.004-0c-0.351 0.043-0.642 0.265-0.781 0.57l-0.003 0.006c-0.178 0.288-0.289 0.633-0.304 1.004l-0 0.004c0.010 0.317 0.141 0.601 0.347 0.811l-0-0c0.192 0.209 0.464 0.341 0.767 0.347l0.001 0c0.001 0 0.002 0 0.003 0 0.306 0 0.581-0.134 0.769-0.346l0.001-0.001c0.192-0.212 0.309-0.494 0.309-0.804 0-0 0-0.001 0-0.001v0c-0.020-0.38-0.138-0.73-0.33-1.027l0.005 0.008zM6.859 12.027c0 0 0 0.001 0 0.001 0 0.24-0.091 0.459-0.241 0.624l0.001-0.001c-0.133 0.147-0.321 0.241-0.532 0.251l-0.002 0c-0.001 0-0.001 0-0.002 0-0.222 0-0.421-0.097-0.557-0.25l-0.001-0.001c-0.151-0.164-0.244-0.383-0.245-0.624v-0c0.016-0.319 0.111-0.613 0.266-0.867l-0.005 0.008c0.16-0.277 0.363-0.437 0.533-0.437s0.389 0.155 0.533 0.437v0c0.146 0.25 0.236 0.548 0.245 0.867l0 0.003z"></path>
<path fill="#444" d="M6.080 13.184v0 0 0z"></path>
<path fill="#444" d="M14.437 7.019c-0.146-0.245-0.4-0.413-0.696-0.437l-0.003-0c-0.352 0.040-0.645 0.26-0.787 0.565l-0.003 0.006c-0.175 0.29-0.285 0.638-0.299 1.009l-0 0.004c0.002 0.314 0.121 0.6 0.316 0.817l-0.001-0.001c0.192 0.207 0.465 0.337 0.767 0.341l0.001 0c0.597-0.034 1.068-0.527 1.068-1.129 0-0.016-0-0.031-0.001-0.047l0 0.002c-0.012-0.423-0.146-0.813-0.367-1.138l0.005 0.007zM13.739 9.067c-0.222-0.006-0.42-0.104-0.559-0.255l-0.001-0.001c-0.149-0.164-0.24-0.383-0.24-0.623 0-0 0-0.001 0-0.001v0c0.014-0.319 0.108-0.613 0.261-0.867l-0.005 0.008c0.165-0.272 0.363-0.432 0.533-0.437 0.204 0.033 0.374 0.154 0.473 0.322l0.002 0.003c0.194 0.273 0.317 0.608 0.336 0.971l0 0.005c0 0.008 0 0.018 0 0.028 0 0.452-0.353 0.821-0.798 0.847l-0.002 0z"></path>
<path fill="#444" d="M10.576 7.019c-0.145-0.248-0.399-0.417-0.695-0.442l-0.003-0c-0.362 0.032-0.665 0.257-0.808 0.57l-0.002 0.006c-0.177 0.29-0.286 0.637-0.299 1.010l-0 0.003c-0 0.002-0 0.005-0 0.008 0 0.312 0.12 0.596 0.315 0.809l-0.001-0.001c0.191 0.209 0.464 0.341 0.767 0.347l0.001 0c0.597-0.034 1.068-0.527 1.068-1.129 0-0.016-0-0.031-0.001-0.047l0 0.002c-0.004-0.423-0.131-0.815-0.346-1.144l0.005 0.008zM9.877 9.067c-0.222-0.002-0.421-0.098-0.559-0.25l-0.001-0.001c-0.155-0.167-0.251-0.392-0.251-0.639 0-0.006 0-0.012 0-0.018l-0 0.001c0.014-0.317 0.108-0.609 0.261-0.861l-0.005 0.008c0.16-0.277 0.363-0.437 0.533-0.437v0c0.205 0.033 0.376 0.157 0.473 0.327l0.002 0.003c0.188 0.268 0.31 0.595 0.336 0.948l0 0.006c0.001 0.018 0.002 0.039 0.002 0.061 0 0.45-0.348 0.818-0.789 0.851l-0.003 0z"></path>
<path fill="#444" d="M6.779 7.019c-0.147-0.245-0.401-0.412-0.695-0.437l-0.003-0c-0.352 0.040-0.645 0.26-0.787 0.565l-0.003 0.006c-0.175 0.288-0.284 0.634-0.299 1.004l-0 0.004c0.006 0.318 0.135 0.605 0.342 0.816l-0-0c0.19 0.21 0.464 0.341 0.768 0.341v0 0c0.597-0.037 1.067-0.531 1.067-1.134 0-0.014-0-0.028-0.001-0.041l0 0.002c-0.022-0.424-0.165-0.811-0.394-1.132l0.004 0.006zM6.080 9.067c-0.223-0.004-0.421-0.102-0.559-0.255l-0.001-0.001c-0.149-0.164-0.24-0.383-0.24-0.623 0-0 0-0.001 0-0.001v0c0.011-0.319 0.105-0.614 0.26-0.866l-0.004 0.008c0.16-0.277 0.363-0.437 0.533-0.437 0.204 0.029 0.374 0.152 0.468 0.322l0.002 0.003c0.192 0.273 0.313 0.609 0.331 0.972l0 0.004c0 0.009 0 0.019 0 0.029 0 0.448-0.347 0.815-0.787 0.846l-0.003 0z"></path>
<path fill="#444" d="M12.651 4.299c0 0.001 0 0.001 0 0.002 0 0.314 0.12 0.6 0.316 0.815l-0.001-0.001c0.191 0.209 0.464 0.341 0.767 0.347l0.001 0c0.306-0.003 0.579-0.138 0.767-0.351l0.001-0.001c0.195-0.212 0.315-0.496 0.315-0.808 0-0.001 0-0.002 0-0.003v0-0.032c-0.015-0.37-0.124-0.713-0.304-1.006l0.005 0.009c-0.144-0.309-0.434-0.529-0.779-0.57l-0.005-0c-0.353 0.041-0.646 0.263-0.787 0.57l-0.002 0.006c-0.177 0.29-0.286 0.637-0.299 1.010l-0 0.003zM12.933 4.299v0c0.014-0.317 0.108-0.609 0.261-0.861l-0.005 0.008c0.16-0.277 0.363-0.437 0.533-0.437s0.379 0.16 0.533 0.437v0c0.153 0.233 0.253 0.513 0.277 0.815l0 0.006c0 0.002 0 0.004 0 0.006 0 0.237-0.091 0.452-0.241 0.613l0.001-0.001c-0.137 0.155-0.337 0.253-0.56 0.253s-0.422-0.097-0.559-0.252l-0.001-0.001c-0.149-0.165-0.24-0.386-0.24-0.627 0-0.001 0-0.002 0-0.003v0z"></path>
<path fill="#444" d="M10.667 3.28c-0.146-0.313-0.444-0.534-0.796-0.57l-0.004-0c-0.357 0.038-0.654 0.261-0.797 0.57l-0.003 0.006c-0.165 0.282-0.268 0.618-0.283 0.977l-0 0.004c-0 0.012-0.001 0.025-0.001 0.039 0 0.602 0.471 1.094 1.064 1.129l0.003 0c0.596-0.032 1.068-0.523 1.068-1.124 0-0.016-0-0.031-0.001-0.046l0 0.002c0-0.003 0-0.006 0-0.009 0-0.359-0.093-0.696-0.256-0.988l0.005 0.010zM9.872 5.173c-0.451-0.022-0.807-0.393-0.807-0.847 0-0.021 0.001-0.042 0.002-0.062l-0 0.003c0.014-0.319 0.107-0.613 0.261-0.867l-0.005 0.008c0.165-0.277 0.363-0.437 0.533-0.437v0c0.181 0 0.384 0.155 0.533 0.432v0c0.159 0.245 0.259 0.541 0.277 0.859l0 0.005c0.002 0.020 0.002 0.042 0.002 0.065 0 0.449-0.352 0.817-0.795 0.841l-0.002 0z"></path>
<path fill="#444" d="M4.981 4.267c-0.001 0.013-0.001 0.029-0.001 0.044 0 0.601 0.471 1.092 1.065 1.124l0.003 0c0.596-0.032 1.068-0.523 1.068-1.124 0-0.016-0-0.031-0.001-0.046l0 0.002c-0.017-0.369-0.128-0.709-0.309-1.001l0.005 0.009c-0.144-0.311-0.437-0.531-0.785-0.57l-0.005-0c-0.351 0.043-0.642 0.265-0.781 0.57l-0.003 0.006c-0.161 0.284-0.256 0.624-0.256 0.986 0 0 0 0.001 0 0.001v-0zM5.515 3.408c0.16-0.272 0.363-0.432 0.533-0.432v0c0.181 0 0.384 0.16 0.533 0.432v0c0.163 0.243 0.267 0.537 0.288 0.853l0 0.005c0.001 0.013 0.001 0.028 0.001 0.044 0 0.452-0.353 0.821-0.799 0.847l-0.002 0c-0.45-0.026-0.806-0.397-0.806-0.852 0-0.012 0-0.023 0.001-0.035l-0 0.002c0.018-0.313 0.111-0.601 0.261-0.851l-0.005 0.008z"></path>
<path fill="#444" d="M2.32 13.184v0 0 0z"></path>
<path fill="#444" d="M2.309 10.437c-0.349 0.047-0.639 0.267-0.781 0.57l-0.003 0.006c-0.175 0.29-0.285 0.637-0.299 1.009l-0 0.004c0.001 0.315 0.123 0.602 0.321 0.817l-0.001-0.001c0.192 0.207 0.465 0.337 0.767 0.341l0.001 0c0.001 0 0.002 0 0.002 0 0.305 0 0.578-0.134 0.765-0.346l0.001-0.001c0.195-0.21 0.315-0.493 0.315-0.804 0-0.002-0-0.005-0-0.007v0c0-0.635-0.469-1.589-1.088-1.589zM3.109 12.037v0c0 0.001 0 0.001 0 0.002 0 0.238-0.091 0.455-0.241 0.617l0.001-0.001c-0.137 0.157-0.337 0.256-0.56 0.256s-0.423-0.099-0.559-0.255l-0.001-0.001c-0.149-0.164-0.24-0.383-0.24-0.623 0-0 0-0.001 0-0.001v0c0.012-0.317 0.105-0.61 0.26-0.861l-0.004 0.008c0.16-0.277 0.363-0.437 0.533-0.437v0c0.416-0.021 0.821 0.731 0.811 1.275z"></path>
<path fill="#444" d="M1.227 8.16c0.001 0.314 0.12 0.601 0.316 0.817l-0.001-0.001c0.192 0.209 0.464 0.341 0.767 0.347l0.001 0c0.597-0.034 1.068-0.527 1.068-1.129 0-0.016-0-0.031-0.001-0.047l0 0.002c-0.017-0.424-0.158-0.812-0.388-1.132l0.004 0.006c-0.145-0.248-0.399-0.417-0.695-0.442l-0.003-0c-0.354 0.040-0.647 0.262-0.787 0.57l-0.002 0.006c-0.177 0.29-0.288 0.637-0.304 1.009l-0 0.004zM1.509 8.16v0c0.014-0.317 0.108-0.609 0.261-0.861l-0.005 0.008c0.165-0.277 0.363-0.437 0.533-0.437v0c0.203 0.027 0.373 0.148 0.468 0.317l0.002 0.003c0.192 0.273 0.313 0.609 0.331 0.972l0 0.004c0.001 0.018 0.002 0.039 0.002 0.060 0 0.447-0.349 0.813-0.789 0.841l-0.002 0c-0.211-0.014-0.398-0.107-0.533-0.25l-0-0c-0.149-0.165-0.24-0.386-0.24-0.627 0-0.001 0-0.002 0-0.003v0z"></path>
<path fill="#444" d="M2.304 5.461v0 0 0z"></path>
<path fill="#444" d="M2.304 5.461v0c0.001 0 0.002 0 0.003 0 0.306 0 0.581-0.134 0.769-0.346l0.001-0.001c0.194-0.214 0.313-0.498 0.315-0.81v-0.038c0-0.619-0.469-1.568-1.093-1.568s-1.067 0.955-1.067 1.6v0c-0 0.003-0 0.007-0 0.010 0 0.311 0.12 0.595 0.315 0.807l-0.001-0.001c0.189 0.206 0.457 0.338 0.756 0.347l0.002 0zM1.504 4.293c0-0.533 0.4-1.291 0.8-1.296s0.811 0.736 0.811 1.269v0c0 0 0 0.001 0 0.001 0 0.24-0.091 0.459-0.241 0.624l0.001-0.001c-0.14 0.154-0.341 0.251-0.565 0.251s-0.425-0.096-0.565-0.25l-0.001-0.001c-0.149-0.165-0.24-0.386-0.24-0.627 0-0.001 0-0.002 0-0.003v0z"></path>
</svg>
