<!-- Generated by IcoMoon.io -->
<svg version="1.1" xmlns="http://www.w3.org/2000/svg" width="16" height="16" viewBox="0 0 16 16">
<title>support</title>
<path fill="#444" d="M8 0c-3.752 0-6.8 3.048-6.8 6.8s3.048 6.8 6.8 6.8h0.4v2.4c3.888-1.872 6.4-5.6 6.4-9.2 0-3.752-3.048-6.8-6.8-6.8zM8.8 11.6h-1.6v-1.6h1.6v1.6zM9.12 7.776c-0.008 0.008-0.016 0.024-0.024 0.040-0.040 0.064-0.080 0.128-0.112 0.192-0.016 0.024-0.024 0.056-0.032 0.088-0.024 0.056-0.048 0.112-0.064 0.168-0.056 0.168-0.080 0.344-0.080 0.544h-1.608c0-0.408 0.064-0.752 0.16-1.040 0-0.008 0-0.016 0.008-0.024 0.008-0.032 0.032-0.048 0.040-0.080 0.048-0.128 0.104-0.24 0.176-0.352 0.024-0.040 0.056-0.080 0.080-0.12 0.024-0.032 0.040-0.072 0.064-0.096l0.008 0.008c0.672-0.88 1.768-1.152 1.856-2.144 0.072-0.784-0.488-1.544-1.256-1.704-0.832-0.176-1.584 0.312-1.84 1.024-0.112 0.288-0.376 0.52-0.704 0.52h-0.16c-0.48 0-0.832-0.472-0.696-0.936 0.44-1.456 1.896-2.472 3.544-2.232 1.352 0.2 2.432 1.312 2.664 2.664 0.352 1.952-1.304 2.424-2.024 3.48v0z"></path>
</svg>
