<!-- Generated by IcoMoon.io -->
<svg version="1.1" xmlns="http://www.w3.org/2000/svg" width="16" height="16" viewBox="0 0 16 16">
<title>syncing</title>
<path fill="#444" d="M13.169 5.163l-2.169 2.169c-0.249 0.249-0.078 0.668 0.272 0.668h1.391c0 2.573-2.091 4.664-4.664 4.664-0.614 0-1.213-0.117-1.749-0.342-0.28-0.117-0.599-0.031-0.808 0.179-0.396 0.396-0.257 1.065 0.264 1.275 0.707 0.288 1.485 0.443 2.293 0.443 3.436 0 6.219-2.783 6.219-6.219h1.391c0.35 0 0.521-0.42 0.272-0.661l-2.169-2.169c-0.148-0.155-0.396-0.155-0.544-0.008v0zM3.336 8c0-2.573 2.091-4.664 4.664-4.664 0.614 0 1.213 0.117 1.749 0.342 0.28 0.117 0.599 0.031 0.808-0.179 0.396-0.396 0.257-1.065-0.264-1.275-0.707-0.288-1.485-0.443-2.293-0.443-3.436 0-6.219 2.783-6.219 6.219h-1.391c-0.35 0-0.521 0.42-0.272 0.661l2.169 2.169c0.155 0.155 0.396 0.155 0.552 0l2.169-2.169c0.241-0.241 0.070-0.661-0.28-0.661h-1.391z"></path>
</svg>
