<!-- Generated by IcoMoon.io -->
<svg version="1.1" xmlns="http://www.w3.org/2000/svg" width="16" height="16" viewBox="0 0 16 16">
<title>t02Cage</title>
<path fill="#444" d="M16 10.773c0 0 0-0.053 0-0.107 0-4.427-3.573-8-8-8s-8 3.573-8 8c0 0.053 0 0.053 0 0.107v0 0.16h1.333c0 0 0 0 0 0h14.667v-0.16zM12.693 6.080c1.173 1.173 1.92 2.773 1.92 4.533h-3.573v-4.213c0-0.107-0.107-0.213-0.213-0.213h-5.653c-0.107 0-0.213 0.107-0.213 0.213v4.213h-3.573c0.107-3.573 3.040-6.453 6.613-6.453 1.813 0 3.467 0.747 4.693 1.92zM8.107 10.613v-4.053h2.613v4.053h-2.613zM7.893 10.613h-2.613v-4.053h2.613v4.053zM15.627 10.56h-0.64v-0.053c-0.16-3.733-3.2-6.72-6.987-6.72s-6.827 2.987-6.987 6.72v0 0.053h-0.64v-0.053c0.053-2.027 0.907-3.84 2.24-5.12v0c1.387-1.387 3.307-2.24 5.387-2.24 4.107 0 7.467 3.253 7.627 7.36v0 0.053z"></path>
<path fill="#444" d="M13.067 13.28h-0.32v-1.333h-0.48v-0.267h1.28v0.267h-0.48v1.333z"></path>
<path fill="#444" d="M14.24 11.733c0.373 0 0.533 0.267 0.533 0.8s-0.16 0.8-0.533 0.8c-0.373 0-0.533-0.267-0.533-0.8s0.16-0.8 0.533-0.8zM14.24 13.067c0.16 0 0.213-0.16 0.213-0.587s-0.053-0.533-0.213-0.533-0.213 0.16-0.213 0.533 0 0.587 0.213 0.587z"></path>
<path fill="#444" d="M14.933 12.267c0-0.533 0.373-0.533 0.533-0.533 0.32 0 0.533 0.16 0.533 0.48 0 0.267-0.16 0.427-0.32 0.533-0.213 0.16-0.32 0.213-0.373 0.267h0.693v0.267h-1.067c0-0.16 0-0.373 0.373-0.64 0.267-0.213 0.373-0.267 0.373-0.48 0 0 0 0 0 0 0-0.107-0.107-0.213-0.213-0.213 0 0 0 0 0 0v0c-0.213 0-0.213 0.16-0.213 0.32h-0.32z"></path>
</svg>
