<!-- Generated by IcoMoon.io -->
<svg version="1.1" xmlns="http://www.w3.org/2000/svg" width="16" height="16" viewBox="0 0 16 16">
<title>t16Cage</title>
<path fill="#444" d="M16 10.773c0 0 0-0.053 0-0.107 0-4.427-3.573-8-8-8s-8 3.573-8 8c0 0.053 0 0.053 0 0.107v0 0.16h16v-0.16zM12.693 6.080c1.173 1.173 1.92 2.773 1.92 4.533h-3.573v-4.213c0-0.107-0.107-0.213-0.213-0.213h-5.653c-0.107 0-0.213 0.107-0.213 0.213v4.213h-3.573c0.107-3.573 3.040-6.453 6.613-6.453 1.813 0 3.467 0.693 4.693 1.92zM10.72 6.507v4.053h-2.613v-4.053h2.613zM7.893 10.613h-2.613v-4.053h2.613v4.053zM15.627 10.56h-0.64v-0.053c-0.16-3.733-3.2-6.72-6.987-6.72s-6.827 2.987-6.987 6.72v0 0.053h-0.64v-0.053c0.053-2.027 0.907-3.84 2.24-5.12v0c1.387-1.387 3.307-2.24 5.387-2.24 4.107 0 7.467 3.253 7.627 7.36v0 0.053z"></path>
<path fill="#444" d="M13.067 13.28h-0.32v-1.333h-0.48v-0.267h1.28v0.267h-0.48v1.333z"></path>
<path fill="#444" d="M13.76 12v0c0.32 0 0.427-0.16 0.427-0.267h0.267v1.6h-0.32v-1.067h-0.373v-0.267z"></path>
<path fill="#444" d="M15.573 12.107c0-0.107-0.053-0.16-0.16-0.16 0 0 0 0 0 0v0c-0.213 0-0.267 0.213-0.267 0.427v0c0.053-0.107 0.16-0.107 0.267-0.107 0 0 0 0 0.053 0v0c0 0 0 0 0 0 0.267 0 0.48 0.213 0.48 0.48 0 0 0 0 0 0v0c0 0.32-0.213 0.587-0.533 0.587-0.48 0-0.587-0.373-0.587-0.8 0-0.32 0.053-0.8 0.587-0.8 0.053 0 0.267 0 0.32 0.107 0.107 0.053 0.16 0.16 0.16 0.32v0l-0.32-0.053zM15.36 12.533c-0.107 0-0.213 0.053-0.213 0.267 0 0.16 0.107 0.32 0.267 0.32 0.107 0 0.213-0.107 0.213-0.32s-0.16-0.267-0.267-0.267v0z"></path>
</svg>
