<!-- Generated by IcoMoon.io -->
<svg version="1.1" xmlns="http://www.w3.org/2000/svg" width="16" height="16" viewBox="0 0 16 16">
<title>t24Cage</title>
<path fill="#444" d="M16 10.773c0 0 0-0.053 0-0.107 0-4.427-3.573-8-8-8s-8 3.627-8 8c0 0.053 0 0.053 0 0.107v0 0.16h5.12c0 0 0.053 0 0.053 0h5.653c0 0 0.053 0 0.053 0h5.12v-0.16zM12.693 6.080c1.173 1.173 1.92 2.773 1.92 4.533h-3.573v-4.213c0-0.107-0.107-0.213-0.213-0.213h-5.653c-0.107 0-0.213 0.107-0.213 0.213v4.213h-3.573c0.107-3.573 3.040-6.453 6.613-6.453 1.813 0 3.467 0.747 4.693 1.92zM5.28 10.613v-4.053h5.387v4.053h-5.387zM15.627 10.56h-0.64v-0.053c-0.16-3.733-3.2-6.72-6.987-6.72s-6.827 2.987-6.987 6.72v0 0.053h-0.64v-0.053c0.053-2.027 0.907-3.84 2.24-5.12v0c1.387-1.387 3.307-2.24 5.387-2.24 4.107 0 7.467 3.253 7.627 7.36v0 0.053z"></path>
<path fill="#444" d="M10.987 10.88h-3.040v-4.587h3.040v4.587zM8.107 10.72h2.667v-4.213h-2.667v4.213z"></path>
<path fill="#444" d="M13.067 13.28h-0.32v-1.333h-0.48v-0.213h1.28v0.267h-0.48v1.28z"></path>
<path fill="#444" d="M13.653 12.267c0-0.533 0.373-0.533 0.533-0.533 0.32 0 0.533 0.16 0.533 0.48 0 0.267-0.16 0.427-0.32 0.533-0.213 0.16-0.32 0.213-0.373 0.267h0.693v0.267h-1.067c0-0.16 0-0.373 0.373-0.64 0.267-0.213 0.373-0.267 0.373-0.48 0 0 0 0 0 0 0-0.107-0.107-0.213-0.213-0.213 0 0 0 0 0 0v0c-0.213 0-0.213 0.16-0.213 0.32h-0.32z"></path>
<path fill="#444" d="M16 12.96h-0.16v0.373h-0.32v-0.373h-0.64v-0.267l0.587-0.96h0.373v0.96h0.16v0.267zM15.52 12.693c0-0.373 0-0.64 0-0.693v0l-0.373 0.693h0.373z"></path>
</svg>
