<!-- Generated by IcoMoon.io -->
<svg version="1.1" xmlns="http://www.w3.org/2000/svg" width="16" height="16" viewBox="0 0 16 16">
<title>tile-parameter</title>
<path fill="#444" d="M6.747 8.053l-0.533-0.16c-0.48-0.16-0.8-0.587-0.8-1.067 0-0.64 0.533-1.173 1.173-1.173 0.48 0 0.96 0.32 1.12 0.8l0.16 0.48 2.453-2.453-1.12-1.12c-0.213-0.213-0.587-0.213-0.853 0v0l-0.267 0.267c-0.107-0.053-0.213-0.107-0.32-0.16v-0.32c0-0.32-0.267-0.587-0.587-0.587 0 0 0 0 0 0h-1.173c-0.32 0-0.587 0.267-0.587 0.587v0.373c-0.107 0.053-0.213 0.107-0.32 0.16l-0.267-0.267c-0.213-0.213-0.587-0.213-0.853 0v0l-0.853 0.8c-0.213 0.213-0.213 0.587 0 0.853v0l0.267 0.267c-0.053 0.107-0.107 0.213-0.16 0.32h-0.32c-0.32 0-0.587 0.267-0.587 0.587 0 0 0 0 0 0v1.173c0 0.32 0.267 0.587 0.587 0.587h0.373c0.053 0.107 0.107 0.213 0.16 0.32l-0.267 0.267c-0.107 0.107-0.16 0.267-0.16 0.427s0.053 0.32 0.16 0.427l1.067 1.12 2.507-2.507zM4.080 8.213c-0.107-0.213-0.213-0.427-0.267-0.64l-0.053-0.267h-0.8v-1.067h0.8l0.053-0.267c0.053-0.213 0.16-0.427 0.267-0.64l0.16-0.16-0.533-0.533 0.747-0.747 0.587 0.533 0.213-0.107c0.213-0.107 0.427-0.213 0.64-0.267l0.267-0.053v-0.8h1.067v0.8l0.267 0.053c0.213 0.053 0.427 0.16 0.64 0.267l0.213 0.107 0.533-0.533 0.587 0.587-1.28 1.28c-0.587-0.853-1.707-1.067-2.56-0.48-0.48 0.32-0.8 0.907-0.8 1.547s0.32 1.173 0.8 1.493l-1.387 1.28-0.587-0.587 0.533-0.533-0.107-0.267z"></path>
<path fill="#444" d="M13.52 5.333l-1.227-1.227c-0.267-0.267-0.693-0.267-0.96 0 0 0 0 0 0 0l-1.013 1.013 2.187 2.187 1.013-1.013c0.107-0.16 0.213-0.32 0.213-0.48s-0.107-0.32-0.213-0.48zM13.040 5.867l-0.533 0.533-1.28-1.28 0.533-0.533c0 0 0.053 0 0.053 0s0 0 0 0l1.227 1.227v0.053c0-0.053 0 0 0 0s0 0 0 0v0z"></path>
<path fill="#444" d="M5.84 9.6l-1.12 1.12c-0.053 0.053-0.16 0.16-0.16 0.32l-0.373 1.6c-0.053 0.373 0.16 0.747 0.533 0.853 0.053 0 0.107 0 0.16 0s0.107 0 0.16 0l1.547-0.373c0.107 0 0.267-0.107 0.373-0.213l5.227-5.227-2.187-2.187-4.16 4.107zM6.427 12.427v0l-1.6 0.373c0 0 0 0-0.053 0 0 0 0 0 0-0.053l0.373-1.547c0 0 0-0.053 0-0.053l4.8-4.8 1.28 1.28-4.8 4.8z"></path>
<path fill="#444" d="M14.693 16h-13.333c-0.747 0-1.333-0.587-1.333-1.333v-13.333c0-0.747 0.587-1.333 1.28-1.333h13.333c0.747 0 1.333 0.587 1.333 1.333v13.387c0 0.693-0.587 1.28-1.28 1.28v0zM1.307 0.8v0c-0.267 0-0.48 0.213-0.48 0.427 0 0 0 0 0 0v13.493c0 0 0 0 0 0 0 0.267 0.213 0.427 0.48 0.427h13.387c0.267 0 0.48-0.213 0.48-0.427 0 0 0 0 0 0v-13.493c0-0.267-0.213-0.427-0.48-0.427h-13.387z"></path>
</svg>
