<!-- Generated by IcoMoon.io -->
<svg version="1.1" xmlns="http://www.w3.org/2000/svg" width="16" height="16" viewBox="0 0 16 16">
<title>time</title>
<path fill="#444" d="M7.992 0c-4.416 0-7.992 3.584-7.992 8s3.576 8 7.992 8c4.424 0 8.008-3.584 8.008-8s-3.584-8-8.008-8zM8 14.4c-3.536 0-6.4-2.864-6.4-6.4s2.864-6.4 6.4-6.4c3.536 0 6.4 2.864 6.4 6.4s-2.864 6.4-6.4 6.4zM7.824 4h-0.048c-0.32 0-0.576 0.256-0.576 0.576v3.776c0 0.28 0.144 0.544 0.392 0.688l3.32 1.992c0.272 0.16 0.624 0.080 0.784-0.192 0.168-0.272 0.080-0.632-0.2-0.792l-3.096-1.84v-3.632c0-0.32-0.256-0.576-0.576-0.576v0z"></path>
</svg>
