<!-- Generated by IcoMoon.io -->
<svg version="1.1" xmlns="http://www.w3.org/2000/svg" width="16" height="16" viewBox="0 0 16 16">
<title>tree_autocomplete</title>
<path fill="#444" d="M16 1.787v-0.96c0-0.107-0.107-0.267-0.267-0.267-0.907 0.053-1.653 0.533-2.24 1.067-0.053 0.107-0.267 0.107-0.32 0-0.587-0.64-1.333-1.013-2.24-1.067-0.107 0-0.267 0.107-0.267 0.267v0.96c0 0.107 0.053 0.213 0.213 0.267 0.96 0.107 1.707 0.96 1.707 1.92v8.213c0 1.013-0.747 1.813-1.707 1.92-0.107 0-0.213 0.107-0.213 0.267v0.96c0 0.107 0.107 0.267 0.267 0.267 0.907-0.053 1.653-0.533 2.24-1.067 0.053-0.107 0.267-0.107 0.32 0 0.587 0.64 1.333 1.013 2.24 1.067 0.107 0 0.267-0.107 0.267-0.267v-0.96c0-0.107-0.053-0.213-0.213-0.267-0.96-0.107-1.707-0.96-1.707-1.92v-8.32c0-1.013 0.747-1.813 1.707-1.92 0.16 0 0.213-0.053 0.213-0.16v0z"></path>
<path fill="#444" d="M9.6 9.147c0.427 0 0.747-0.373 0.747-0.747 0-0.427-0.373-0.747-0.747-0.747h-3.787v-1.973h3.787c0.427 0 0.747-0.373 0.747-0.747 0-0.427-0.373-0.747-0.747-0.747h-8.053v-2.933c0-0.427-0.373-0.853-0.747-0.853s-0.8 0.427-0.8 0.853v6.987c0 0.427 0.373 0.8 0.747 0.8s0.747-0.373 0.747-0.853v-2.613h2.773v6.187c0 0.427 0.373 0.853 0.747 0.853h4.587c0.427 0 0.747-0.373 0.747-0.747 0-0.427-0.373-0.747-0.747-0.747h-3.787v-1.973h3.787z"></path>
</svg>
